{
	"code": 0,
	"data": {
		"cinemas": [{
			"addr": "天河区黄埔大道西188号维家思广场3楼（富力盈隆广场对面）",
			"cellShows": [],
			"cityId": 20,
			"dis": 10390.642266341138,
			"distance": "10.4km",
			"follow": 0,
			"id": 208,
			"labels": [{
				"color": "#ff9900",
				"name": "小吃",
				"url": ""
			}, {
				"color": "#579daf",
				"name": "杜比全景声厅",
				"url": ""
			}, {
				"color": "#579daf",
				"name": "60帧厅",
				"url": ""
			}],
			"lat": 23.125294,
			"lng": 113.327354,
			"mark": 0,
			"nm": "金逸影城（维家思店）",
			"poiId": 623314,
			"price": 19.9,
			"promotion": {
				"cardPromotionTag": "",
				"couponPromotionTag": "",
				"merchantActivityTag": "",
				"packShowActivityTag": "",
				"platformActivityTag": "悬崖之上等4部影片特惠",
				"starActivityTag": ""
			},
			"referencePrice": "80",
			"score": 805.0,
			"sellPrice": "19.9",
			"shopId": 1595926,
			"showTimes": "",
			"tag": {
				"allowRefund": 0,
				"buyout": 0,
				"cityCardTag": 0,
				"deal": 0,
				"endorse": 0,
				"giftTag": "",
				"hallType": ["杜比全景声厅", "60帧厅"],
				"hallTypeVOList": [{
					"name": "杜比全景声厅",
					"url": ""
				}, {
					"name": "60帧厅",
					"url": ""
				}],
				"sell": 1,
				"snack": 1,
				"vipTag": ""
			}
		}, {
			"addr": "天河区黄埔大道西365号珠水能源大厦5楼",
			"cellShows": [],
			"cityId": 20,
			"dis": 10424.881195803036,
			"distance": "10.4km",
			"follow": 0,
			"id": 27153,
			"labels": [],
			"lat": 23.127544,
			"lng": 113.337555,
			"mark": 0,
			"nm": "沃美影城（石牌西店）",
			"poiId": 193651918,
			"price": 19.9,
			"promotion": {
				"cardPromotionTag": "",
				"couponPromotionTag": "",
				"merchantActivityTag": "",
				"packShowActivityTag": "",
				"platformActivityTag": "悬崖之上等4部影片特惠",
				"starActivityTag": ""
			},
			"referencePrice": "0",
			"score": 600.0,
			"sellPrice": "19.9",
			"shopId": 130685287,
			"showTimes": "",
			"tag": {
				"allowRefund": 0,
				"buyout": 0,
				"cityCardTag": 0,
				"deal": 0,
				"endorse": 0,
				"giftTag": "",
				"hallType": [],
				"hallTypeVOList": [],
				"sell": 1,
				"snack": 0,
				"vipTag": ""
			}
		}, {
			"addr": "荔湾区西增路63号自编A11号二楼（原啤酒厂）",
			"cellShows": [],
			"cityId": 20,
			"dis": 10545.71716138069,
			"distance": "10.5km",
			"follow": 0,
			"id": 5555,
			"labels": [{
				"color": "#ff9900",
				"name": "小吃",
				"url": ""
			}, {
				"color": "#579daf",
				"name": "60帧厅",
				"url": ""
			}],
			"lat": 23.145761,
			"lng": 113.23689,
			"mark": 0,
			"nm": "金逸影城（西村店）",
			"poiId": 1450723,
			"price": 19.9,
			"promotion": {
				"cardPromotionTag": "",
				"couponPromotionTag": "",
				"merchantActivityTag": "",
				"packShowActivityTag": "",
				"platformActivityTag": "悬崖之上等3部影片特惠",
				"starActivityTag": ""
			},
			"referencePrice": "0",
			"score": 677.94116,
			"sellPrice": "19.9",
			"shopId": 9316514,
			"showTimes": "",
			"tag": {
				"allowRefund": 0,
				"buyout": 0,
				"cityCardTag": 0,
				"deal": 0,
				"endorse": 0,
				"giftTag": "",
				"hallType": ["60帧厅"],
				"hallTypeVOList": [{
					"name": "60帧厅",
					"url": ""
				}],
				"sell": 1,
				"snack": 1,
				"vipTag": ""
			}
		}, {
			"addr": "越秀区东风西路167号或人民北路873号（近人民北路）",
			"cellShows": [],
			"cityId": 20,
			"dis": 10580.253327016768,
			"distance": "10.6km",
			"follow": 0,
			"id": 73,
			"labels": [{
				"color": "#579daf",
				"name": "退",
				"url": ""
			}, {
				"color": "#579daf",
				"name": "改签",
				"url": ""
			}],
			"lat": 23.134377,
			"lng": 113.25339,
			"mark": 0,
			"nm": "广州蓓蕾剧院",
			"poiId": 1564923,
			"price": 19.9,
			"promotion": {
				"cardPromotionTag": "",
				"couponPromotionTag": "",
				"merchantActivityTag": "",
				"packShowActivityTag": "",
				"platformActivityTag": "真·三国无双特惠",
				"starActivityTag": ""
			},
			"referencePrice": "0",
			"score": 895.0,
			"sellPrice": "19.9",
			"shopId": 3011233,
			"showTimes": "",
			"tag": {
				"allowRefund": 1,
				"buyout": 0,
				"cityCardTag": 0,
				"deal": 0,
				"endorse": 1,
				"giftTag": "",
				"hallType": [],
				"hallTypeVOList": [],
				"sell": 1,
				"snack": 0,
				"vipTag": ""
			}
		}, {
			"addr": "越秀区中山五路68号五月花商业广场6层（近广卫路）",
			"cellShows": [],
			"cityId": 20,
			"dis": 10839.86708595297,
			"distance": "10.8km",
			"follow": 0,
			"id": 206,
			"labels": [{
				"color": "#579daf",
				"name": "改签",
				"url": ""
			}],
			"lat": 23.125792,
			"lng": 113.26688,
			"mark": 0,
			"nm": "五月花电影城",
			"poiId": 88886,
			"price": 19.9,
			"promotion": {
				"cardPromotionTag": "",
				"couponPromotionTag": "",
				"merchantActivityTag": "",
				"packShowActivityTag": "",
				"platformActivityTag": "悬崖之上等6部影片特惠",
				"starActivityTag": ""
			},
			"referencePrice": "80",
			"score": 728.5714,
			"sellPrice": "19.9",
			"shopId": 1595968,
			"showTimes": "",
			"tag": {
				"allowRefund": 0,
				"buyout": 0,
				"cityCardTag": 0,
				"deal": 0,
				"endorse": 1,
				"giftTag": "",
				"hallType": [],
				"hallTypeVOList": [],
				"sell": 1,
				"snack": 0,
				"vipTag": ""
			}
		}, {
			"addr": "越秀区中山五路70号捷登都会6楼",
			"cellShows": [],
			"cityId": 20,
			"dis": 10868.475404006795,
			"distance": "10.9km",
			"follow": 0,
			"id": 25313,
			"labels": [{
				"color": "#579daf",
				"name": "改签",
				"url": ""
			}, {
				"color": "#ff9900",
				"name": "小吃",
				"url": ""
			}, {
				"color": "#579daf",
				"name": "IMAX厅",
				"url": ""
			}, {
				"color": "#579daf",
				"name": "杜比全景声厅",
				"url": ""
			}],
			"lat": 23.125868,
			"lng": 113.26591,
			"mark": 0,
			"nm": "北京路飞扬影城IMAX店",
			"poiId": 173203225,
			"price": 19.9,
			"promotion": {
				"cardPromotionTag": "",
				"couponPromotionTag": "",
				"merchantActivityTag": "",
				"packShowActivityTag": "",
				"platformActivityTag": "追虎擒龙等3部影片特惠",
				"starActivityTag": ""
			},
			"referencePrice": "0",
			"score": 600.0,
			"sellPrice": "19.9",
			"shopId": 106309457,
			"showTimes": "",
			"tag": {
				"allowRefund": 0,
				"buyout": 0,
				"cityCardTag": 0,
				"deal": 0,
				"endorse": 1,
				"giftTag": "",
				"hallType": ["IMAX厅", "杜比全景声厅"],
				"hallTypeVOList": [{
					"name": "IMAX厅",
					"url": ""
				}, {
					"name": "杜比全景声厅",
					"url": ""
				}],
				"sell": 1,
				"snack": 1,
				"vipTag": ""
			}
		}, {
			"addr": "越秀区北京路312号青年文化宫二楼（近广百百货）",
			"cellShows": [],
			"cityId": 20,
			"dis": 10871.51184046217,
			"distance": "10.9km",
			"follow": 0,
			"id": 204,
			"labels": [{
				"color": "#579daf",
				"name": "改签",
				"url": ""
			}, {
				"color": "#ff9900",
				"name": "小吃",
				"url": ""
			}, {
				"color": "#579daf",
				"name": "杜比全景声厅",
				"url": ""
			}],
			"lat": 23.124746,
			"lng": 113.269005,
			"mark": 0,
			"nm": "华影青宫电影城",
			"poiId": 2526090,
			"price": 19.9,
			"promotion": {
				"cardPromotionTag": "",
				"couponPromotionTag": "",
				"merchantActivityTag": "",
				"packShowActivityTag": "",
				"platformActivityTag": "悬崖之上等5部影片特惠",
				"starActivityTag": ""
			},
			"referencePrice": "42",
			"score": 751.9608,
			"sellPrice": "19.9",
			"shopId": 1595956,
			"showTimes": "",
			"tag": {
				"allowRefund": 0,
				"buyout": 0,
				"cityCardTag": 0,
				"deal": 0,
				"endorse": 1,
				"giftTag": "",
				"hallType": ["杜比全景声厅"],
				"hallTypeVOList": [{
					"name": "杜比全景声厅",
					"url": ""
				}],
				"sell": 1,
				"snack": 1,
				"vipTag": ""
			}
		}, {
			"addr": "天河区珠江东路14号高德置地冬广场5楼501铺",
			"cellShows": [],
			"cityId": 20,
			"dis": 10929.27554278338,
			"distance": "10.9km",
			"follow": 0,
			"id": 11016,
			"labels": [{
				"color": "#579daf",
				"name": "改签",
				"url": ""
			}, {
				"color": "#ff9900",
				"name": "小吃",
				"url": ""
			}, {
				"color": "#579daf",
				"name": "杜比全景声厅",
				"url": ""
			}],
			"lat": 23.120195,
			"lng": 113.3266,
			"mark": 0,
			"nm": "飞扬影城（高德置地店）",
			"poiId": 41236222,
			"price": 26.9,
			"promotion": {
				"cardPromotionTag": "",
				"couponPromotionTag": "",
				"merchantActivityTag": "",
				"packShowActivityTag": "",
				"platformActivityTag": "悬崖之上等3部影片特惠",
				"starActivityTag": ""
			},
			"referencePrice": "0",
			"score": 658.9474,
			"sellPrice": "26.9",
			"shopId": 21618919,
			"showTimes": "",
			"tag": {
				"allowRefund": 0,
				"buyout": 0,
				"cityCardTag": 0,
				"deal": 0,
				"endorse": 1,
				"giftTag": "",
				"hallType": ["杜比全景声厅"],
				"hallTypeVOList": [{
					"name": "杜比全景声厅",
					"url": ""
				}],
				"sell": 1,
				"snack": 1,
				"vipTag": ""
			}
		}, {
			"addr": "越秀区文明路65号（近北京路）",
			"cellShows": [],
			"cityId": 20,
			"dis": 10995.179721217864,
			"distance": "11.0km",
			"follow": 0,
			"id": 212,
			"labels": [{
				"color": "#579daf",
				"name": "退",
				"url": ""
			}, {
				"color": "#579daf",
				"name": "改签",
				"url": ""
			}],
			"lat": 23.12285,
			"lng": 113.271225,
			"mark": 0,
			"nm": "市一宫",
			"poiId": 3244732,
			"price": 19.9,
			"promotion": {
				"cardPromotionTag": "",
				"couponPromotionTag": "",
				"merchantActivityTag": "",
				"packShowActivityTag": "",
				"platformActivityTag": "追虎擒龙等3部影片特惠",
				"starActivityTag": ""
			},
			"referencePrice": "70",
			"score": 604.2105,
			"sellPrice": "19.9",
			"shopId": 1595962,
			"showTimes": "",
			"tag": {
				"allowRefund": 1,
				"buyout": 0,
				"cityCardTag": 0,
				"deal": 0,
				"endorse": 1,
				"giftTag": "",
				"hallType": [],
				"hallTypeVOList": [],
				"sell": 1,
				"snack": 0,
				"vipTag": ""
			}
		}, {
			"addr": "越秀区北京路238号名盛广场（天河城百货）九楼",
			"cellShows": [],
			"cityId": 20,
			"dis": 11010.325119111483,
			"distance": "11.0km",
			"follow": 0,
			"id": 24778,
			"labels": [{
				"color": "#579daf",
				"name": "改签",
				"url": ""
			}, {
				"color": "#ff9900",
				"name": "小吃",
				"url": ""
			}, {
				"color": "#579daf",
				"name": "杜比全景声厅",
				"url": ""
			}],
			"lat": 23.123072,
			"lng": 113.270065,
			"mark": 0,
			"nm": "北京路期遇·艺电影城（天河城店）",
			"poiId": 165382985,
			"price": 19.9,
			"promotion": {
				"cardPromotionTag": "",
				"couponPromotionTag": "",
				"merchantActivityTag": "",
				"packShowActivityTag": "",
				"platformActivityTag": "悬崖之上等5部影片特惠",
				"starActivityTag": ""
			},
			"referencePrice": "0",
			"score": 600.0,
			"sellPrice": "19.9",
			"shopId": 98419368,
			"showTimes": "",
			"tag": {
				"allowRefund": 0,
				"buyout": 0,
				"cityCardTag": 0,
				"deal": 0,
				"endorse": 1,
				"giftTag": "",
				"hallType": ["杜比全景声厅"],
				"hallTypeVOList": [{
					"name": "杜比全景声厅",
					"url": ""
				}],
				"sell": 1,
				"snack": 1,
				"vipTag": ""
			}
		}, {
			"addr": "天河区马场路36号太阳新天地8楼（近中国联通）",
			"cellShows": [],
			"cityId": 20,
			"dis": 11022.290956373907,
			"distance": "11.0km",
			"follow": 0,
			"id": 2505,
			"labels": [{
				"color": "#579daf",
				"name": "杜比全景声厅",
				"url": ""
			}, {
				"color": "#579daf",
				"name": "120帧/4K厅",
				"url": ""
			}],
			"lat": 23.124044,
			"lng": 113.34428,
			"mark": 0,
			"nm": "中影国际影城（太阳新天地店）",
			"poiId": 1535757,
			"price": 19.9,
			"promotion": {
				"cardPromotionTag": "",
				"couponPromotionTag": "",
				"merchantActivityTag": "",
				"packShowActivityTag": "",
				"platformActivityTag": "悬崖之上等3部影片特惠",
				"starActivityTag": ""
			},
			"referencePrice": "40",
			"score": 730.55554,
			"sellPrice": "19.9",
			"shopId": 5250506,
			"showTimes": "",
			"tag": {
				"allowRefund": 0,
				"buyout": 0,
				"cityCardTag": 0,
				"deal": 0,
				"endorse": 0,
				"giftTag": "",
				"hallType": ["杜比全景声厅", "120帧/4K厅"],
				"hallTypeVOList": [{
					"name": "杜比全景声厅",
					"url": ""
				}, {
					"name": "120帧/4K厅",
					"url": ""
				}],
				"sell": 1,
				"snack": 0,
				"vipTag": ""
			}
		}, {
			"addr": "越秀区中山五路219号中旅商业城9楼（地铁公园前站Ａ出口）",
			"cellShows": [],
			"cityId": 20,
			"dis": 11072.189105232916,
			"distance": "11.1km",
			"follow": 0,
			"id": 23834,
			"labels": [{
				"color": "#579daf",
				"name": "退",
				"url": ""
			}, {
				"color": "#579daf",
				"name": "改签",
				"url": ""
			}, {
				"color": "#ff9900",
				"name": "小吃",
				"url": ""
			}],
			"lat": 23.125006,
			"lng": 113.26296,
			"mark": 0,
			"nm": "曜轩影城",
			"poiId": 157763889,
			"price": 0.0,
			"promotion": {
				"cardPromotionTag": "",
				"couponPromotionTag": "",
				"merchantActivityTag": "",
				"packShowActivityTag": "",
				"platformActivityTag": "",
				"starActivityTag": ""
			},
			"referencePrice": "0",
			"score": 600.0,
			"sellPrice": "",
			"shopId": 90979717,
			"showTimes": "",
			"tag": {
				"allowRefund": 1,
				"buyout": 0,
				"cityCardTag": 0,
				"deal": 0,
				"endorse": 1,
				"giftTag": "",
				"hallType": [],
				"hallTypeVOList": [],
				"sell": 1,
				"snack": 1,
				"vipTag": ""
			}
		}],
		"ct_pois": [{
			"ct_poi": "936879945111165696_a208_c0",
			"poiid": 623314
		}, {
			"ct_poi": "936879945111165696_a27153_c1",
			"poiid": 193651918
		}, {
			"ct_poi": "936879945111165696_a5555_c2",
			"poiid": 1450723
		}, {
			"ct_poi": "936879945111165696_a73_c3",
			"poiid": 1564923
		}, {
			"ct_poi": "936879945111165696_a206_c4",
			"poiid": 88886
		}, {
			"ct_poi": "936879945111165696_a25313_c5",
			"poiid": 173203225
		}, {
			"ct_poi": "936879945111165696_a204_c6",
			"poiid": 2526090
		}, {
			"ct_poi": "936879945111165696_a11016_c7",
			"poiid": 41236222
		}, {
			"ct_poi": "936879945111165696_a212_c8",
			"poiid": 3244732
		}, {
			"ct_poi": "936879945111165696_a24778_c9",
			"poiid": 165382985
		}, {
			"ct_poi": "936879945111165696_a2505_c10",
			"poiid": 1535757
		}, {
			"ct_poi": "936879945111165696_a23834_c11",
			"poiid": 157763889
		}],
		"paging": {
			"hasMore": true,
			"limit": 12,
			"offset": 60,
			"total": 271
		}
	},
	"errMsg": "",
	"success": true
}
