{
	"code": 0,
	"data": {
		"cinemas": [{
			"addr": "天河区天河路228号正佳购物广场7楼（近体育中心）",
			"cellShows": [],
			"cityId": 20,
			"dis": 9654.366654449066,
			"distance": "9.7km",
			"follow": 0,
			"id": 207,
			"labels": [{
				"color": "#579daf",
				"name": "改签",
				"url": ""
			}, {
				"color": "#ff9900",
				"name": "小吃",
				"url": ""
			}, {
				"color": "#579daf",
				"name": "IMAX厅",
				"url": ""
			}, {
				"color": "#579daf",
				"name": "杜比全景声厅",
				"url": ""
			}],
			"lat": 23.131992,
			"lng": 113.326904,
			"mark": 0,
			"nm": "飞扬影城（正佳IMAX店）",
			"poiId": 623333,
			"price": 30.8,
			"promotion": {
				"cardPromotionTag": "",
				"couponPromotionTag": "",
				"merchantActivityTag": "",
				"packShowActivityTag": "",
				"platformActivityTag": "追虎擒龙等2部影片特惠",
				"starActivityTag": ""
			},
			"referencePrice": "80",
			"score": 807.52686,
			"sellPrice": "30.8",
			"shopId": 1595986,
			"showTimes": "",
			"tag": {
				"allowRefund": 0,
				"buyout": 0,
				"cityCardTag": 0,
				"deal": 0,
				"endorse": 1,
				"giftTag": "",
				"hallType": ["IMAX厅", "杜比全景声厅"],
				"hallTypeVOList": [{
					"name": "IMAX厅",
					"url": ""
				}, {
					"name": "杜比全景声厅",
					"url": ""
				}],
				"sell": 1,
				"snack": 1,
				"vipTag": ""
			}
		}, {
			"addr": "越秀区流花路117号流花展贸中心1号馆4层全层（原广交会馆）",
			"cellShows": [],
			"cityId": 20,
			"dis": 9660.192366875905,
			"distance": "9.7km",
			"follow": 0,
			"id": 25068,
			"labels": [{
				"color": "#579daf",
				"name": "改签",
				"url": ""
			}, {
				"color": "#ff9900",
				"name": "小吃",
				"url": ""
			}, {
				"color": "#579daf",
				"name": "杜比全景声厅",
				"url": ""
			}],
			"lat": 23.141352,
			"lng": 113.258255,
			"mark": 0,
			"nm": "中影南方国际影城（流花店）",
			"poiId": 165649249,
			"price": 19.9,
			"promotion": {
				"cardPromotionTag": "",
				"couponPromotionTag": "",
				"merchantActivityTag": "",
				"packShowActivityTag": "",
				"platformActivityTag": "悬崖之上等6部影片特惠",
				"starActivityTag": ""
			},
			"referencePrice": "0",
			"score": 600.0,
			"sellPrice": "19.9",
			"shopId": 98673289,
			"showTimes": "",
			"tag": {
				"allowRefund": 0,
				"buyout": 0,
				"cityCardTag": 0,
				"deal": 0,
				"endorse": 1,
				"giftTag": "",
				"hallType": ["杜比全景声厅"],
				"hallTypeVOList": [{
					"name": "杜比全景声厅",
					"url": ""
				}],
				"sell": 1,
				"snack": 1,
				"vipTag": ""
			}
		}, {
			"addr": "白云区江高镇旧广花路8号亿达广场3楼",
			"cellShows": [],
			"cityId": 20,
			"dis": 9695.647390997789,
			"distance": "9.7km",
			"follow": 0,
			"id": 17081,
			"labels": [{
				"color": "#579daf",
				"name": "退",
				"url": ""
			}, {
				"color": "#579daf",
				"name": "改签",
				"url": ""
			}, {
				"color": "#ff9900",
				"name": "小吃",
				"url": ""
			}, {
				"color": "#579daf",
				"name": "杜比全景声厅",
				"url": ""
			}, {
				"color": "#579daf",
				"name": "巨幕厅",
				"url": ""
			}],
			"lat": 23.274658,
			"lng": 113.23465,
			"mark": 0,
			"nm": "江高巨幕国际影城",
			"poiId": 152080335,
			"price": 19.9,
			"promotion": {
				"cardPromotionTag": "",
				"couponPromotionTag": "",
				"merchantActivityTag": "",
				"packShowActivityTag": "",
				"platformActivityTag": "追虎擒龙等3部影片特惠",
				"starActivityTag": ""
			},
			"referencePrice": "0",
			"score": 566.6666,
			"sellPrice": "19.9",
			"shopId": 78977996,
			"showTimes": "",
			"tag": {
				"allowRefund": 1,
				"buyout": 0,
				"cityCardTag": 0,
				"deal": 0,
				"endorse": 1,
				"giftTag": "",
				"hallType": ["杜比全景声厅", "巨幕厅"],
				"hallTypeVOList": [{
					"name": "杜比全景声厅",
					"url": ""
				}, {
					"name": "巨幕厅",
					"url": ""
				}],
				"sell": 1,
				"snack": 1,
				"vipTag": ""
			}
		}, {
			"addr": "白云区太和镇太营路288号恒泰汇广场4楼",
			"cellShows": [],
			"cityId": 20,
			"dis": 9729.522740705392,
			"distance": "9.7km",
			"follow": 0,
			"id": 25099,
			"labels": [{
				"color": "#579daf",
				"name": "改签",
				"url": ""
			}, {
				"color": "#ff9900",
				"name": "小吃",
				"url": ""
			}, {
				"color": "#579daf",
				"name": "DTS:X 临境音厅",
				"url": ""
			}],
			"lat": 23.29618,
			"lng": 113.34535,
			"mark": 0,
			"nm": "DY影城（恒泰汇店）",
			"poiId": 165654805,
			"price": 0.0,
			"promotion": {
				"cardPromotionTag": "",
				"couponPromotionTag": "",
				"merchantActivityTag": "",
				"packShowActivityTag": "",
				"platformActivityTag": "",
				"starActivityTag": ""
			},
			"referencePrice": "0",
			"score": 600.0,
			"sellPrice": "",
			"shopId": 98678142,
			"showTimes": "",
			"tag": {
				"allowRefund": 0,
				"buyout": 0,
				"cityCardTag": 0,
				"deal": 0,
				"endorse": 1,
				"giftTag": "",
				"hallType": ["DTS:X 临境音厅"],
				"hallTypeVOList": [{
					"name": "DTS:X 临境音厅",
					"url": ""
				}],
				"sell": 1,
				"snack": 1,
				"vipTag": ""
			}
		}, {
			"addr": "天河区天河路518号闲鱼美食港三楼（原南方电脑城）",
			"cellShows": [],
			"cityId": 20,
			"dis": 9781.411974201405,
			"distance": "9.8km",
			"follow": 0,
			"id": 26258,
			"labels": [{
				"color": "#579daf",
				"name": "改签",
				"url": ""
			}, {
				"color": "#ff9900",
				"name": "小吃",
				"url": ""
			}],
			"lat": 23.133429,
			"lng": 113.33682,
			"mark": 0,
			"nm": "佰合兆全激光巨幕影城",
			"poiId": 189863425,
			"price": 0.0,
			"promotion": {
				"cardPromotionTag": "",
				"couponPromotionTag": "",
				"merchantActivityTag": "",
				"packShowActivityTag": "",
				"platformActivityTag": "",
				"starActivityTag": ""
			},
			"referencePrice": "0",
			"score": 600.0,
			"sellPrice": "",
			"shopId": 127114552,
			"showTimes": "",
			"tag": {
				"allowRefund": 0,
				"buyout": 0,
				"cityCardTag": 0,
				"deal": 0,
				"endorse": 1,
				"giftTag": "",
				"hallType": [],
				"hallTypeVOList": [],
				"sell": 1,
				"snack": 1,
				"vipTag": ""
			}
		}, {
			"addr": "荔湾区西湾路悦汇城4层D区CGV影城",
			"cellShows": [],
			"cityId": 20,
			"dis": 9832.847691623829,
			"distance": "9.8km",
			"follow": 0,
			"id": 36373,
			"labels": [{
				"color": "#579daf",
				"name": "改签",
				"url": ""
			}, {
				"color": "#579daf",
				"name": "IMAX厅",
				"url": ""
			}],
			"lat": 23.15066,
			"lng": 113.2414,
			"mark": 0,
			"nm": "CGV影城（悦汇城IMAX店）",
			"poiId": 1873505000,
			"price": 26.9,
			"promotion": {
				"cardPromotionTag": "",
				"couponPromotionTag": "",
				"merchantActivityTag": "",
				"packShowActivityTag": "",
				"platformActivityTag": "悬崖之上等4部影片特惠",
				"starActivityTag": ""
			},
			"referencePrice": "0",
			"score": 600.0,
			"sellPrice": "26.9",
			"shopId": 1873505000,
			"showTimes": "",
			"tag": {
				"allowRefund": 0,
				"buyout": 0,
				"cityCardTag": 0,
				"deal": 0,
				"endorse": 1,
				"giftTag": "",
				"hallType": ["IMAX厅"],
				"hallTypeVOList": [{
					"name": "IMAX厅",
					"url": ""
				}],
				"sell": 1,
				"snack": 0,
				"vipTag": ""
			}
		}, {
			"addr": "白云区西槎路鹅掌坦百德广场四楼（地铁8号线鹅掌坦站）",
			"cellShows": [],
			"cityId": 20,
			"dis": 9835.958197644493,
			"distance": "9.8km",
			"follow": 0,
			"id": 32601,
			"labels": [{
				"color": "#579daf",
				"name": "改签",
				"url": ""
			}, {
				"color": "#579daf",
				"name": "杜比全景声厅",
				"url": ""
			}, {
				"color": "#579daf",
				"name": "4K厅",
				"url": ""
			}, {
				"color": "#579daf",
				"name": "巨幕厅",
				"url": ""
			}],
			"lat": 23.15637,
			"lng": 113.23502,
			"mark": 0,
			"nm": "星天地国际影城·杜比巨幕（同德围）",
			"poiId": 993702239,
			"price": 8.8,
			"promotion": {
				"cardPromotionTag": "",
				"couponPromotionTag": "",
				"merchantActivityTag": "影院特惠促销",
				"packShowActivityTag": "",
				"platformActivityTag": "名侦探柯南：绯色的子弹等19部影片特惠",
				"starActivityTag": ""
			},
			"referencePrice": "0",
			"score": 600.0,
			"sellPrice": "8.8",
			"shopId": 993702239,
			"showTimes": "",
			"tag": {
				"allowRefund": 0,
				"buyout": 0,
				"cityCardTag": 0,
				"deal": 0,
				"endorse": 1,
				"giftTag": "",
				"hallType": ["杜比全景声厅", "4K厅", "巨幕厅"],
				"hallTypeVOList": [{
					"name": "杜比全景声厅",
					"url": ""
				}, {
					"name": "4K厅",
					"url": ""
				}, {
					"name": "巨幕厅",
					"url": ""
				}],
				"sell": 1,
				"snack": 0,
				"vipTag": ""
			}
		}, {
			"addr": "白云区西槎路99号骐利广场C座5楼（地铁8号线鹅掌坦A出口20米）",
			"cellShows": [],
			"cityId": 20,
			"dis": 10050.747079561348,
			"distance": "10.1km",
			"follow": 0,
			"id": 7382,
			"labels": [{
				"color": "#579daf",
				"name": "改签",
				"url": ""
			}, {
				"color": "#ff9900",
				"name": "小吃",
				"url": ""
			}],
			"lat": 23.156075,
			"lng": 113.23247,
			"mark": 0,
			"nm": "爱禧影城鹅掌坦店（原保利影城）",
			"poiId": 3300489,
			"price": 9.9,
			"promotion": {
				"cardPromotionTag": "",
				"couponPromotionTag": "",
				"merchantActivityTag": "",
				"packShowActivityTag": "",
				"platformActivityTag": "悬崖之上等5部影片特惠",
				"starActivityTag": ""
			},
			"referencePrice": "0",
			"score": 617.03705,
			"sellPrice": "9.9",
			"shopId": 13745763,
			"showTimes": "",
			"tag": {
				"allowRefund": 0,
				"buyout": 0,
				"cityCardTag": 0,
				"deal": 0,
				"endorse": 1,
				"giftTag": "",
				"hallType": [],
				"hallTypeVOList": [],
				"sell": 1,
				"snack": 1,
				"vipTag": ""
			}
		}, {
			"addr": "天河区黄埔大道保利克洛维三期3层（地铁体育西路站G口步行600米或公交天河站）（汉堡王对面观光梯直上）",
			"cellShows": [],
			"cityId": 20,
			"dis": 10092.295207780619,
			"distance": "10.1km",
			"follow": 0,
			"id": 25200,
			"labels": [{
				"color": "#579daf",
				"name": "退",
				"url": ""
			}, {
				"color": "#579daf",
				"name": "改签",
				"url": ""
			}, {
				"color": "#579daf",
				"name": "60帧厅",
				"url": ""
			}],
			"lat": 23.12675,
			"lng": 113.31977,
			"mark": 0,
			"nm": "中都影城（克洛维店）",
			"poiId": 168989336,
			"price": 19.9,
			"promotion": {
				"cardPromotionTag": "",
				"couponPromotionTag": "",
				"merchantActivityTag": "",
				"packShowActivityTag": "",
				"platformActivityTag": "悬崖之上等4部影片特惠",
				"starActivityTag": ""
			},
			"referencePrice": "0",
			"score": 600.0,
			"sellPrice": "19.9",
			"shopId": 102039645,
			"showTimes": "",
			"tag": {
				"allowRefund": 1,
				"buyout": 0,
				"cityCardTag": 0,
				"deal": 0,
				"endorse": 1,
				"giftTag": "",
				"hallType": ["60帧厅"],
				"hallTypeVOList": [{
					"name": "60帧厅",
					"url": ""
				}],
				"sell": 1,
				"snack": 0,
				"vipTag": ""
			}
		}, {
			"addr": "越秀区农林下路4-6号东山锦轩大厦4-6楼（电车总站对面）",
			"cellShows": [],
			"cityId": 20,
			"dis": 10215.51496720281,
			"distance": "10.2km",
			"follow": 0,
			"id": 112,
			"labels": [{
				"color": "#579daf",
				"name": "退",
				"url": ""
			}, {
				"color": "#579daf",
				"name": "改签",
				"url": ""
			}, {
				"color": "#ff9900",
				"name": "小吃",
				"url": ""
			}],
			"lat": 23.125153,
			"lng": 113.295616,
			"mark": 0,
			"nm": "中影火山湖电影城（东山口店）",
			"poiId": 1482249,
			"price": 27.9,
			"promotion": {
				"cardPromotionTag": "",
				"couponPromotionTag": "",
				"merchantActivityTag": "",
				"packShowActivityTag": "",
				"platformActivityTag": "悬崖之上等5部影片特惠",
				"starActivityTag": ""
			},
			"referencePrice": "35",
			"score": 783.3334,
			"sellPrice": "27.9",
			"shopId": 3365110,
			"showTimes": "",
			"tag": {
				"allowRefund": 1,
				"buyout": 0,
				"cityCardTag": 0,
				"deal": 0,
				"endorse": 1,
				"giftTag": "",
				"hallType": [],
				"hallTypeVOList": [],
				"sell": 1,
				"snack": 1,
				"vipTag": ""
			}
		}, {
			"addr": "越秀区中山三路33号中华广场8楼（近地王广场）",
			"cellShows": [],
			"cityId": 20,
			"dis": 10348.743231238253,
			"distance": "10.3km",
			"follow": 0,
			"id": 209,
			"labels": [{
				"color": "#579daf",
				"name": "改签",
				"url": ""
			}, {
				"color": "#ff9900",
				"name": "小吃",
				"url": ""
			}, {
				"color": "#579daf",
				"name": "杜比全景声厅",
				"url": ""
			}, {
				"color": "#579daf",
				"name": "4K厅",
				"url": ""
			}, {
				"color": "#579daf",
				"name": "CINITY厅",
				"url": ""
			}],
			"lat": 23.125921,
			"lng": 113.2826,
			"mark": 0,
			"nm": "中华广场电影城",
			"poiId": 623334,
			"price": 19.9,
			"promotion": {
				"cardPromotionTag": "",
				"couponPromotionTag": "",
				"merchantActivityTag": "",
				"packShowActivityTag": "",
				"platformActivityTag": "悬崖之上等4部影片特惠",
				"starActivityTag": ""
			},
			"referencePrice": "40",
			"score": 806.3158,
			"sellPrice": "19.9",
			"shopId": 1595989,
			"showTimes": "",
			"tag": {
				"allowRefund": 0,
				"buyout": 0,
				"cityCardTag": 0,
				"deal": 0,
				"endorse": 1,
				"giftTag": "",
				"hallType": ["杜比全景声厅", "4K厅", "CINITY厅"],
				"hallTypeVOList": [{
					"name": "杜比全景声厅",
					"url": ""
				}, {
					"name": "4K厅",
					"url": ""
				}, {
					"name": "CINITY厅",
					"url": ""
				}],
				"sell": 1,
				"snack": 1,
				"vipTag": ""
			}
		}, {
			"addr": "天河区冼村街道花城广场珠江东路30号东花城汇北区B1层1130",
			"cellShows": [],
			"cityId": 20,
			"dis": 10363.454533707903,
			"distance": "10.4km",
			"follow": 0,
			"id": 1676,
			"labels": [{
				"color": "#579daf",
				"name": "退",
				"url": ""
			}, {
				"color": "#579daf",
				"name": "改签",
				"url": ""
			}, {
				"color": "#ff9900",
				"name": "小吃",
				"url": ""
			}, {
				"color": "#579daf",
				"name": "IMAX厅",
				"url": ""
			}],
			"lat": 23.125092,
			"lng": 113.32498,
			"mark": 0,
			"nm": "UA IMAX花城汇电影城",
			"poiId": 1448425,
			"price": 35.9,
			"promotion": {
				"cardPromotionTag": "",
				"couponPromotionTag": "",
				"merchantActivityTag": "",
				"packShowActivityTag": "",
				"platformActivityTag": "悬崖之上等4部影片特惠",
				"starActivityTag": ""
			},
			"referencePrice": "70",
			"score": 772.3684,
			"sellPrice": "35.9",
			"shopId": 5611180,
			"showTimes": "",
			"tag": {
				"allowRefund": 1,
				"buyout": 0,
				"cityCardTag": 0,
				"deal": 0,
				"endorse": 1,
				"giftTag": "",
				"hallType": ["IMAX厅"],
				"hallTypeVOList": [{
					"name": "IMAX厅",
					"url": ""
				}],
				"sell": 1,
				"snack": 1,
				"vipTag": ""
			}
		}],
		"ct_pois": [{
			"ct_poi": "936879945111165696_a207_c0",
			"poiid": 623333
		}, {
			"ct_poi": "936879945111165696_a25068_c1",
			"poiid": 165649249
		}, {
			"ct_poi": "936879945111165696_a17081_c2",
			"poiid": 152080335
		}, {
			"ct_poi": "936879945111165696_a25099_c3",
			"poiid": 165654805
		}, {
			"ct_poi": "936879945111165696_a26258_c4",
			"poiid": 189863425
		}, {
			"ct_poi": "936879945111165696_a36373_c5",
			"poiid": 1873505000
		}, {
			"ct_poi": "936879945111165696_a32601_c6",
			"poiid": 993702239
		}, {
			"ct_poi": "936879945111165696_a7382_c7",
			"poiid": 3300489
		}, {
			"ct_poi": "936879945111165696_a25200_c8",
			"poiid": 168989336
		}, {
			"ct_poi": "936879945111165696_a112_c9",
			"poiid": 1482249
		}, {
			"ct_poi": "936879945111165696_a209_c10",
			"poiid": 623334
		}, {
			"ct_poi": "936879945111165696_a1676_c11",
			"poiid": 1448425
		}],
		"paging": {
			"hasMore": true,
			"limit": 12,
			"offset": 48,
			"total": 271
		}
	},
	"errMsg": "",
	"success": true
}
