{
	"code": 0,
	"data": {
		"cinemas": [{
			"addr": "白云区白云湖石沙路86号石井国际综合广场第四层",
			"cellShows": [],
			"cityId": 20,
			"dis": 7438.6184493784085,
			"distance": "7.4km",
			"follow": 0,
			"id": 24091,
			"labels": [{
				"color": "#579daf",
				"name": "退",
				"url": ""
			}, {
				"color": "#579daf",
				"name": "改签",
				"url": ""
			}, {
				"color": "#ff9900",
				"name": "小吃",
				"url": ""
			}],
			"lat": 23.210838,
			"lng": 113.232994,
			"mark": 0,
			"nm": "左岸国际影城（石井店）",
			"poiId": 161883775,
			"price": 18.0,
			"promotion": {
				"cardPromotionTag": "",
				"couponPromotionTag": "",
				"merchantActivityTag": "",
				"packShowActivityTag": "",
				"platformActivityTag": "追虎擒龙等4部影片特惠",
				"starActivityTag": ""
			},
			"referencePrice": "0",
			"score": 600.0,
			"sellPrice": "18",
			"shopId": 95248626,
			"showTimes": "",
			"tag": {
				"allowRefund": 1,
				"buyout": 0,
				"cityCardTag": 0,
				"deal": 0,
				"endorse": 1,
				"giftTag": "",
				"hallType": [],
				"hallTypeVOList": [],
				"sell": 1,
				"snack": 1,
				"vipTag": ""
			}
		}, {
			"addr": "白云区棠景街沙涌北大街新乐嘉商业广场A1区二楼",
			"cellShows": [],
			"cityId": 20,
			"dis": 7486.087168691911,
			"distance": "7.5km",
			"follow": 0,
			"id": 16612,
			"labels": [{
				"color": "#579daf",
				"name": "改签",
				"url": ""
			}, {
				"color": "#ff9900",
				"name": "小吃",
				"url": ""
			}],
			"lat": 23.167578,
			"lng": 113.25532,
			"mark": 0,
			"nm": "粤骏电影城",
			"poiId": 127565780,
			"price": 19.9,
			"promotion": {
				"cardPromotionTag": "",
				"couponPromotionTag": "",
				"merchantActivityTag": "",
				"packShowActivityTag": "",
				"platformActivityTag": "追虎擒龙等3部影片特惠",
				"starActivityTag": ""
			},
			"referencePrice": "0",
			"score": 611.11115,
			"sellPrice": "19.9",
			"shopId": 76071180,
			"showTimes": "",
			"tag": {
				"allowRefund": 0,
				"buyout": 0,
				"cityCardTag": 0,
				"deal": 0,
				"endorse": 1,
				"giftTag": "",
				"hallType": [],
				"hallTypeVOList": [],
				"sell": 1,
				"snack": 1,
				"vipTag": ""
			}
		}, {
			"addr": "天河区东莞庄路富力院士庭2楼（广东农垦总局对面）",
			"cellShows": [],
			"cityId": 20,
			"dis": 7834.763882140522,
			"distance": "7.8km",
			"follow": 0,
			"id": 1643,
			"labels": [{
				"color": "#ff9900",
				"name": "小吃",
				"url": ""
			}],
			"lat": 23.15217,
			"lng": 113.33664,
			"mark": 0,
			"nm": "中影佰纳飞影电影城（天河店）",
			"poiId": 1169467,
			"price": 19.9,
			"promotion": {
				"cardPromotionTag": "",
				"couponPromotionTag": "",
				"merchantActivityTag": "",
				"packShowActivityTag": "",
				"platformActivityTag": "悬崖之上等3部影片特惠",
				"starActivityTag": ""
			},
			"referencePrice": "36",
			"score": 728.972,
			"sellPrice": "19.9",
			"shopId": 5538719,
			"showTimes": "",
			"tag": {
				"allowRefund": 0,
				"buyout": 0,
				"cityCardTag": 0,
				"deal": 0,
				"endorse": 0,
				"giftTag": "",
				"hallType": [],
				"hallTypeVOList": [],
				"sell": 1,
				"snack": 1,
				"vipTag": ""
			}
		}, {
			"addr": "天河区林和中路63号101室",
			"cellShows": [],
			"cityId": 20,
			"dis": 7987.702343287066,
			"distance": "8.0km",
			"follow": 0,
			"id": 24249,
			"labels": [{
				"color": "#579daf",
				"name": "退",
				"url": ""
			}, {
				"color": "#579daf",
				"name": "改签",
				"url": ""
			}, {
				"color": "#ff9900",
				"name": "小吃",
				"url": ""
			}],
			"lat": 23.14686,
			"lng": 113.32439,
			"mark": 0,
			"nm": "UA东方宝泰电影城",
			"poiId": 163857204,
			"price": 33.9,
			"promotion": {
				"cardPromotionTag": "",
				"couponPromotionTag": "",
				"merchantActivityTag": "",
				"packShowActivityTag": "",
				"platformActivityTag": "悬崖之上等4部影片特惠",
				"starActivityTag": ""
			},
			"referencePrice": "0",
			"score": 600.0,
			"sellPrice": "33.9",
			"shopId": 97050195,
			"showTimes": "",
			"tag": {
				"allowRefund": 1,
				"buyout": 0,
				"cityCardTag": 0,
				"deal": 0,
				"endorse": 1,
				"giftTag": "",
				"hallType": [],
				"hallTypeVOList": [],
				"sell": 1,
				"snack": 1,
				"vipTag": ""
			}
		}, {
			"addr": "白云区庆丰广场路财智广场3楼",
			"cellShows": [],
			"cityId": 20,
			"dis": 8106.060354153998,
			"distance": "8.1km",
			"follow": 0,
			"id": 9580,
			"labels": [{
				"color": "#ff9900",
				"name": "小吃",
				"url": ""
			}],
			"lat": 23.21206,
			"lng": 113.22634,
			"mark": 0,
			"nm": "横店电影城（庆丰店）",
			"poiId": 5646991,
			"price": 19.9,
			"promotion": {
				"cardPromotionTag": "",
				"couponPromotionTag": "",
				"merchantActivityTag": "",
				"packShowActivityTag": "",
				"platformActivityTag": "悬崖之上等5部影片特惠",
				"starActivityTag": ""
			},
			"referencePrice": "0",
			"score": 637.68115,
			"sellPrice": "19.9",
			"shopId": 18186282,
			"showTimes": "",
			"tag": {
				"allowRefund": 0,
				"buyout": 0,
				"cityCardTag": 0,
				"deal": 0,
				"endorse": 0,
				"giftTag": "",
				"hallType": [],
				"hallTypeVOList": [],
				"sell": 1,
				"snack": 1,
				"vipTag": ""
			}
		}, {
			"addr": "天河区茶山路251-261号二层（单号）",
			"cellShows": [],
			"cityId": 20,
			"dis": 8756.497545730837,
			"distance": "8.8km",
			"follow": 0,
			"id": 25906,
			"labels": [{
				"color": "#ff9900",
				"name": "小吃",
				"url": ""
			}],
			"lat": 23.152006,
			"lng": 113.354614,
			"mark": 0,
			"nm": "楼上友嘉影城（五山店）",
			"poiId": 185903823,
			"price": 19.9,
			"promotion": {
				"cardPromotionTag": "",
				"couponPromotionTag": "",
				"merchantActivityTag": "",
				"packShowActivityTag": "",
				"platformActivityTag": "悬崖之上等6部影片特惠",
				"starActivityTag": ""
			},
			"referencePrice": "0",
			"score": 600.0,
			"sellPrice": "19.9",
			"shopId": 123307169,
			"showTimes": "",
			"tag": {
				"allowRefund": 0,
				"buyout": 0,
				"cityCardTag": 0,
				"deal": 0,
				"endorse": 0,
				"giftTag": "",
				"hallType": [],
				"hallTypeVOList": [],
				"sell": 1,
				"snack": 1,
				"vipTag": ""
			}
		}, {
			"addr": "天河区天河北路705号曜和广场西3层",
			"cellShows": [],
			"cityId": 20,
			"dis": 9141.601543764202,
			"distance": "9.1km",
			"follow": 0,
			"id": 2062,
			"labels": [{
				"color": "#579daf",
				"name": "退",
				"url": ""
			}, {
				"color": "#579daf",
				"name": "改签",
				"url": ""
			}, {
				"color": "#ff9900",
				"name": "小吃",
				"url": ""
			}],
			"lat": 23.141977,
			"lng": 113.34316,
			"mark": 0,
			"nm": "中影乐佳影城",
			"poiId": 1465628,
			"price": 19.9,
			"promotion": {
				"cardPromotionTag": "",
				"couponPromotionTag": "",
				"merchantActivityTag": "",
				"packShowActivityTag": "",
				"platformActivityTag": "悬崖之上等5部影片特惠",
				"starActivityTag": ""
			},
			"referencePrice": "30",
			"score": 608.421,
			"sellPrice": "19.9",
			"shopId": 5571418,
			"showTimes": "",
			"tag": {
				"allowRefund": 1,
				"buyout": 0,
				"cityCardTag": 0,
				"deal": 0,
				"endorse": 1,
				"giftTag": "",
				"hallType": [],
				"hallTypeVOList": [],
				"sell": 1,
				"snack": 1,
				"vipTag": ""
			}
		}, {
			"addr": "白云区增槎路1068号龙骏广场F座3层",
			"cellShows": [],
			"cityId": 20,
			"dis": 9164.950816134524,
			"distance": "9.2km",
			"follow": 0,
			"id": 8254,
			"labels": [{
				"color": "#579daf",
				"name": "退",
				"url": ""
			}, {
				"color": "#579daf",
				"name": "改签",
				"url": ""
			}, {
				"color": "#ff9900",
				"name": "小吃",
				"url": ""
			}, {
				"color": "#579daf",
				"name": "杜比全景声厅",
				"url": ""
			}],
			"lat": 23.177225,
			"lng": 113.22673,
			"mark": 0,
			"nm": "展映龙骏影城",
			"poiId": 6482565,
			"price": 0.0,
			"promotion": {
				"cardPromotionTag": "",
				"couponPromotionTag": "",
				"merchantActivityTag": "",
				"packShowActivityTag": "",
				"platformActivityTag": "",
				"starActivityTag": ""
			},
			"referencePrice": "0",
			"score": 777.27277,
			"sellPrice": "",
			"shopId": 17929452,
			"showTimes": "",
			"tag": {
				"allowRefund": 1,
				"buyout": 0,
				"cityCardTag": 0,
				"deal": 0,
				"endorse": 1,
				"giftTag": "",
				"hallType": ["杜比全景声厅"],
				"hallTypeVOList": [{
					"name": "杜比全景声厅",
					"url": ""
				}],
				"sell": 1,
				"snack": 1,
				"vipTag": ""
			}
		}, {
			"addr": "越秀区建设大马路18号保利时光里南塔5层",
			"cellShows": [],
			"cityId": 20,
			"dis": 9243.001986609008,
			"distance": "9.2km",
			"follow": 0,
			"id": 1645,
			"labels": [{
				"color": "#579daf",
				"name": "巨幕厅",
				"url": ""
			}],
			"lat": 23.136435,
			"lng": 113.28153,
			"mark": 0,
			"nm": "保利国际影城（中环店）",
			"poiId": 1541539,
			"price": 19.9,
			"promotion": {
				"cardPromotionTag": "",
				"couponPromotionTag": "",
				"merchantActivityTag": "",
				"packShowActivityTag": "",
				"platformActivityTag": "悬崖之上等2部影片特惠",
				"starActivityTag": ""
			},
			"referencePrice": "100",
			"score": 712.5,
			"sellPrice": "19.9",
			"shopId": 4742516,
			"showTimes": "",
			"tag": {
				"allowRefund": 0,
				"buyout": 0,
				"cityCardTag": 0,
				"deal": 0,
				"endorse": 0,
				"giftTag": "",
				"hallType": ["巨幕厅"],
				"hallTypeVOList": [{
					"name": "巨幕厅",
					"url": ""
				}],
				"sell": 1,
				"snack": 0,
				"vipTag": ""
			}
		}, {
			"addr": "天河区天河路208号天河城广场4楼",
			"cellShows": [],
			"cityId": 20,
			"dis": 9491.570966391726,
			"distance": "9.5km",
			"follow": 0,
			"id": 210,
			"labels": [{
				"color": "#579daf",
				"name": "改签",
				"url": ""
			}, {
				"color": "#ff9900",
				"name": "小吃",
				"url": ""
			}, {
				"color": "#579daf",
				"name": "杜比全景声厅",
				"url": ""
			}],
			"lat": 23.132656,
			"lng": 113.32257,
			"mark": 0,
			"nm": "飞扬影城（天河城店）",
			"poiId": 83444,
			"price": 36.8,
			"promotion": {
				"cardPromotionTag": "",
				"couponPromotionTag": "",
				"merchantActivityTag": "",
				"packShowActivityTag": "",
				"platformActivityTag": "追虎擒龙等2部影片特惠",
				"starActivityTag": ""
			},
			"referencePrice": "80",
			"score": 730.8824,
			"sellPrice": "36.8",
			"shopId": 1595917,
			"showTimes": "",
			"tag": {
				"allowRefund": 0,
				"buyout": 0,
				"cityCardTag": 0,
				"deal": 0,
				"endorse": 1,
				"giftTag": "",
				"hallType": ["杜比全景声厅"],
				"hallTypeVOList": [{
					"name": "杜比全景声厅",
					"url": ""
				}],
				"sell": 1,
				"snack": 1,
				"vipTag": ""
			}
		}, {
			"addr": "天河区天环广场负一层B117铺",
			"cellShows": [],
			"cityId": 20,
			"dis": 9541.185145514028,
			"distance": "9.5km",
			"follow": 0,
			"id": 16408,
			"labels": [{
				"color": "#579daf",
				"name": "RealD厅",
				"url": ""
			}, {
				"color": "#579daf",
				"name": "LUXE巨幕厅",
				"url": ""
			}, {
				"color": "#579daf",
				"name": "60帧厅",
				"url": ""
			}],
			"lat": 23.132477,
			"lng": 113.32411,
			"mark": 0,
			"nm": "百丽宫影城（天环店）",
			"poiId": 97726560,
			"price": 45.0,
			"promotion": {
				"cardPromotionTag": "",
				"couponPromotionTag": "",
				"merchantActivityTag": "",
				"packShowActivityTag": "",
				"platformActivityTag": "扫黑·决战特惠",
				"starActivityTag": ""
			},
			"referencePrice": "0",
			"score": 477.77777,
			"sellPrice": "45",
			"shopId": 66285744,
			"showTimes": "",
			"tag": {
				"allowRefund": 0,
				"buyout": 0,
				"cityCardTag": 0,
				"deal": 0,
				"endorse": 0,
				"giftTag": "",
				"hallType": ["RealD厅", "LUXE巨幕厅", "60帧厅"],
				"hallTypeVOList": [{
					"name": "RealD厅",
					"url": ""
				}, {
					"name": "LUXE巨幕厅",
					"url": ""
				}, {
					"name": "60帧厅",
					"url": ""
				}],
				"sell": 1,
				"snack": 0,
				"vipTag": ""
			}
		}, {
			"addr": "天河区天河路623号天娱广场5楼（近地铁3号线岗顶站A出口）",
			"cellShows": [],
			"cityId": 20,
			"dis": 9651.062996288327,
			"distance": "9.7km",
			"follow": 0,
			"id": 211,
			"labels": [{
				"color": "#579daf",
				"name": "改签",
				"url": ""
			}],
			"lat": 23.135674,
			"lng": 113.339775,
			"mark": 0,
			"nm": "天河电影城（天娱广场店）",
			"poiId": 85597,
			"price": 14.0,
			"promotion": {
				"cardPromotionTag": "",
				"couponPromotionTag": "",
				"merchantActivityTag": "",
				"packShowActivityTag": "",
				"platformActivityTag": "悬崖之上等5部影片特惠",
				"starActivityTag": ""
			},
			"referencePrice": "80",
			"score": 622.46375,
			"sellPrice": "14",
			"shopId": 1595965,
			"showTimes": "",
			"tag": {
				"allowRefund": 0,
				"buyout": 0,
				"cityCardTag": 0,
				"deal": 0,
				"endorse": 1,
				"giftTag": "",
				"hallType": [],
				"hallTypeVOList": [],
				"sell": 1,
				"snack": 0,
				"vipTag": ""
			}
		}],
		"ct_pois": [{
			"ct_poi": "936879945111165696_a24091_c0",
			"poiid": 161883775
		}, {
			"ct_poi": "936879945111165696_a16612_c1",
			"poiid": 127565780
		}, {
			"ct_poi": "936879945111165696_a1643_c2",
			"poiid": 1169467
		}, {
			"ct_poi": "936879945111165696_a24249_c3",
			"poiid": 163857204
		}, {
			"ct_poi": "936879945111165696_a9580_c4",
			"poiid": 5646991
		}, {
			"ct_poi": "936879945111165696_a25906_c5",
			"poiid": 185903823
		}, {
			"ct_poi": "936879945111165696_a2062_c6",
			"poiid": 1465628
		}, {
			"ct_poi": "936879945111165696_a8254_c7",
			"poiid": 6482565
		}, {
			"ct_poi": "936879945111165696_a1645_c8",
			"poiid": 1541539
		}, {
			"ct_poi": "936879945111165696_a210_c9",
			"poiid": 83444
		}, {
			"ct_poi": "936879945111165696_a16408_c10",
			"poiid": 97726560
		}, {
			"ct_poi": "936879945111165696_a211_c11",
			"poiid": 85597
		}],
		"paging": {
			"hasMore": true,
			"limit": 12,
			"offset": 36,
			"total": 271
		}
	},
	"errMsg": "",
	"success": true
}
