{
	"code": 0,
	"data": {
		"cinemas": [{
			"addr": "白云区广州大道北1811号嘉裕太阳城广场3楼（南方医院正对面）",
			"cellShows": [],
			"cityId": 20,
			"dis": 3928.8349089989406,
			"distance": "3.9km",
			"follow": 0,
			"id": 106,
			"labels": [{
				"color": "#579daf",
				"name": "IMAX厅",
				"url": ""
			}, {
				"color": "#579daf",
				"name": "杜比全景声厅",
				"url": ""
			}, {
				"color": "#579daf",
				"name": "DTS:X 临境音厅",
				"url": ""
			}],
			"lat": 23.187557,
			"lng": 113.32745,
			"mark": 0,
			"nm": "金逸影城（太阳城IMAX店）",
			"poiId": 657260,
			"price": 20.0,
			"promotion": {
				"cardPromotionTag": "",
				"couponPromotionTag": "",
				"merchantActivityTag": "",
				"packShowActivityTag": "",
				"platformActivityTag": "扫黑·决战等3部影片特惠",
				"starActivityTag": ""
			},
			"referencePrice": "70",
			"score": 706.97675,
			"sellPrice": "20",
			"shopId": 3451009,
			"showTimes": "",
			"tag": {
				"allowRefund": 0,
				"buyout": 0,
				"cityCardTag": 0,
				"deal": 0,
				"endorse": 0,
				"giftTag": "",
				"hallType": ["IMAX厅", "杜比全景声厅", "DTS:X 临境音厅"],
				"hallTypeVOList": [{
					"name": "IMAX厅",
					"url": ""
				}, {
					"name": "杜比全景声厅",
					"url": ""
				}, {
					"name": "DTS:X 临境音厅",
					"url": ""
				}],
				"sell": 1,
				"snack": 0,
				"vipTag": ""
			}
		}, {
			"addr": "白云区黄石东路88号白云汇广场7F",
			"cellShows": [],
			"cityId": 20,
			"dis": 4047.770663989514,
			"distance": "4.0km",
			"follow": 0,
			"id": 24775,
			"labels": [{
				"color": "#579daf",
				"name": "改签",
				"url": ""
			}, {
				"color": "#ff9900",
				"name": "小吃",
				"url": ""
			}, {
				"color": "#579daf",
				"name": "Dolby Cinema厅",
				"url": ""
			}, {
				"color": "#579daf",
				"name": "巨幕厅",
				"url": ""
			}],
			"lat": 23.202496,
			"lng": 113.26903,
			"mark": 0,
			"nm": "唐德国际影城（白云汇店）",
			"poiId": 164970833,
			"price": 19.9,
			"promotion": {
				"cardPromotionTag": "",
				"couponPromotionTag": "",
				"merchantActivityTag": "",
				"packShowActivityTag": "",
				"platformActivityTag": "悬崖之上等5部影片特惠",
				"starActivityTag": ""
			},
			"referencePrice": "0",
			"score": 600.0,
			"sellPrice": "19.9",
			"shopId": 98058873,
			"showTimes": "",
			"tag": {
				"allowRefund": 0,
				"buyout": 0,
				"cityCardTag": 0,
				"deal": 0,
				"endorse": 1,
				"giftTag": "",
				"hallType": ["Dolby Cinema厅", "巨幕厅"],
				"hallTypeVOList": [{
					"name": "Dolby Cinema厅",
					"url": ""
				}, {
					"name": "巨幕厅",
					"url": ""
				}],
				"sell": 1,
				"snack": 1,
				"vipTag": ""
			}
		}, {
			"addr": "白云区广州大道北28号梅花园商业广场5楼",
			"cellShows": [],
			"cityId": 20,
			"dis": 4515.556523593424,
			"distance": "4.5km",
			"follow": 0,
			"id": 1644,
			"labels": [{
				"color": "#579daf",
				"name": "4K厅",
				"url": ""
			}],
			"lat": 23.17846,
			"lng": 113.32073,
			"mark": 0,
			"nm": "华影梅花园影城",
			"poiId": 1416235,
			"price": 19.9,
			"promotion": {
				"cardPromotionTag": "",
				"couponPromotionTag": "",
				"merchantActivityTag": "",
				"packShowActivityTag": "",
				"platformActivityTag": "悬崖之上等5部影片特惠",
				"starActivityTag": ""
			},
			"referencePrice": "40",
			"score": 727.04913,
			"sellPrice": "19.9",
			"shopId": 5237514,
			"showTimes": "",
			"tag": {
				"allowRefund": 0,
				"buyout": 0,
				"cityCardTag": 0,
				"deal": 0,
				"endorse": 0,
				"giftTag": "",
				"hallType": ["4K厅"],
				"hallTypeVOList": [{
					"name": "4K厅",
					"url": ""
				}],
				"sell": 1,
				"snack": 0,
				"vipTag": ""
			}
		}, {
			"addr": "白云区均禾街道罗岗村委旁中源广场四楼",
			"cellShows": [],
			"cityId": 20,
			"dis": 4671.713098278304,
			"distance": "4.7km",
			"follow": 0,
			"id": 25520,
			"labels": [{
				"color": "#579daf",
				"name": "退",
				"url": ""
			}, {
				"color": "#579daf",
				"name": "改签",
				"url": ""
			}, {
				"color": "#ff9900",
				"name": "小吃",
				"url": ""
			}],
			"lat": 23.245316,
			"lng": 113.27212,
			"mark": 0,
			"nm": "星天地国际影城（罗岗店）",
			"poiId": 174896957,
			"price": 3.1,
			"promotion": {
				"cardPromotionTag": "",
				"couponPromotionTag": "",
				"merchantActivityTag": "影院特惠促销",
				"packShowActivityTag": "",
				"platformActivityTag": "我的姐姐等13部影片特惠",
				"starActivityTag": ""
			},
			"referencePrice": "0",
			"score": 600.0,
			"sellPrice": "3.1",
			"shopId": 107736049,
			"showTimes": "",
			"tag": {
				"allowRefund": 1,
				"buyout": 0,
				"cityCardTag": 0,
				"deal": 0,
				"endorse": 1,
				"giftTag": "",
				"hallType": [],
				"hallTypeVOList": [],
				"sell": 1,
				"snack": 1,
				"vipTag": ""
			}
		}, {
			"addr": "白云区云城街新市南街45号联富文化商业广场F座3楼全层（近联富文化商业广场）",
			"cellShows": [],
			"cityId": 20,
			"dis": 4892.217897527289,
			"distance": "4.9km",
			"follow": 0,
			"id": 13620,
			"labels": [{
				"color": "#579daf",
				"name": "改签",
				"url": ""
			}, {
				"color": "#ff9900",
				"name": "小吃",
				"url": ""
			}, {
				"color": "#579daf",
				"name": "杜比全景声厅",
				"url": ""
			}],
			"lat": 23.191822,
			"lng": 113.26598,
			"mark": 0,
			"nm": "大地影院（广州白云新市天地店）",
			"poiId": 64348324,
			"price": 19.9,
			"promotion": {
				"cardPromotionTag": "",
				"couponPromotionTag": "",
				"merchantActivityTag": "",
				"packShowActivityTag": "",
				"platformActivityTag": "悬崖之上等5部影片特惠",
				"starActivityTag": ""
			},
			"referencePrice": "0",
			"score": 797.3684,
			"sellPrice": "19.9",
			"shopId": 26204996,
			"showTimes": "",
			"tag": {
				"allowRefund": 0,
				"buyout": 0,
				"cityCardTag": 0,
				"deal": 0,
				"endorse": 1,
				"giftTag": "",
				"hallType": ["杜比全景声厅"],
				"hallTypeVOList": [{
					"name": "杜比全景声厅",
					"url": ""
				}],
				"sell": 1,
				"snack": 1,
				"vipTag": ""
			}
		}, {
			"addr": "白云区机场路1423-1455百信广场三期五楼（近新市）",
			"cellShows": [],
			"cityId": 20,
			"dis": 5105.482058754234,
			"distance": "5.1km",
			"follow": 0,
			"id": 118,
			"labels": [{
				"color": "#ff9900",
				"name": "小吃",
				"url": ""
			}, {
				"color": "#579daf",
				"name": "杜比全景声厅",
				"url": ""
			}, {
				"color": "#579daf",
				"name": "60帧厅",
				"url": ""
			}],
			"lat": 23.194408,
			"lng": 113.2618,
			"mark": 0,
			"nm": "金逸影城（百信东区店）",
			"poiId": 635698,
			"price": 19.9,
			"promotion": {
				"cardPromotionTag": "",
				"couponPromotionTag": "",
				"merchantActivityTag": "",
				"packShowActivityTag": "",
				"platformActivityTag": "追虎擒龙特惠",
				"starActivityTag": ""
			},
			"referencePrice": "70",
			"score": 720.7921,
			"sellPrice": "19.9",
			"shopId": 3131320,
			"showTimes": "",
			"tag": {
				"allowRefund": 0,
				"buyout": 0,
				"cityCardTag": 0,
				"deal": 0,
				"endorse": 0,
				"giftTag": "",
				"hallType": ["杜比全景声厅", "60帧厅"],
				"hallTypeVOList": [{
					"name": "杜比全景声厅",
					"url": ""
				}, {
					"name": "60帧厅",
					"url": ""
				}],
				"sell": 1,
				"snack": 1,
				"vipTag": ""
			}
		}, {
			"addr": "白云区黄石街黄石西路383号凯粤大厦1栋202",
			"cellShows": [],
			"cityId": 20,
			"dis": 5278.301196982743,
			"distance": "5.3km",
			"follow": 0,
			"id": 36486,
			"labels": [{
				"color": "#579daf",
				"name": "退",
				"url": ""
			}, {
				"color": "#579daf",
				"name": "改签",
				"url": ""
			}],
			"lat": 23.206203,
			"lng": 113.255135,
			"mark": 0,
			"nm": "中影星海影城（黄石凯粤大厦店）",
			"poiId": 1450835936,
			"price": 19.9,
			"promotion": {
				"cardPromotionTag": "",
				"couponPromotionTag": "",
				"merchantActivityTag": "",
				"packShowActivityTag": "",
				"platformActivityTag": "追虎擒龙等6部影片特惠",
				"starActivityTag": ""
			},
			"referencePrice": "0",
			"score": 600.0,
			"sellPrice": "19.9",
			"shopId": 1450835936,
			"showTimes": "",
			"tag": {
				"allowRefund": 1,
				"buyout": 0,
				"cityCardTag": 0,
				"deal": 0,
				"endorse": 1,
				"giftTag": "",
				"hallType": [],
				"hallTypeVOList": [],
				"sell": 1,
				"snack": 0,
				"vipTag": ""
			}
		}, {
			"addr": "白云区棠乐路百信广场西区L3-002",
			"cellShows": [],
			"cityId": 20,
			"dis": 5345.194390444795,
			"distance": "5.3km",
			"follow": 0,
			"id": 26277,
			"labels": [{
				"color": "#ff9900",
				"name": "小吃",
				"url": ""
			}, {
				"color": "#579daf",
				"name": "IMAX厅",
				"url": ""
			}, {
				"color": "#579daf",
				"name": "杜比全景声厅",
				"url": ""
			}, {
				"color": "#579daf",
				"name": "4D厅",
				"url": ""
			}, {
				"color": "#579daf",
				"name": "MX4D厅",
				"url": ""
			}],
			"lat": 23.195122,
			"lng": 113.25874,
			"mark": 0,
			"nm": "金逸影城（百信西区IMAX店）",
			"poiId": 189947950,
			"price": 24.9,
			"promotion": {
				"cardPromotionTag": "",
				"couponPromotionTag": "",
				"merchantActivityTag": "",
				"packShowActivityTag": "",
				"platformActivityTag": "阳光劫匪等2部影片特惠",
				"starActivityTag": ""
			},
			"referencePrice": "0",
			"score": 600.0,
			"sellPrice": "24.9",
			"shopId": 127183072,
			"showTimes": "",
			"tag": {
				"allowRefund": 0,
				"buyout": 0,
				"cityCardTag": 0,
				"deal": 0,
				"endorse": 0,
				"giftTag": "",
				"hallType": ["IMAX厅", "杜比全景声厅", "4D厅", "MX4D厅"],
				"hallTypeVOList": [{
					"name": "IMAX厅",
					"url": ""
				}, {
					"name": "杜比全景声厅",
					"url": ""
				}, {
					"name": "4D厅",
					"url": ""
				}, {
					"name": "MX4D厅",
					"url": ""
				}],
				"sell": 1,
				"snack": 1,
				"vipTag": ""
			}
		}, {
			"addr": "白云区石夏路288号金铂广场7楼",
			"cellShows": [],
			"cityId": 20,
			"dis": 5377.92066049542,
			"distance": "5.4km",
			"follow": 0,
			"id": 23973,
			"labels": [{
				"color": "#579daf",
				"name": "改签",
				"url": ""
			}, {
				"color": "#ff9900",
				"name": "小吃",
				"url": ""
			}, {
				"color": "#579daf",
				"name": "DTS:X 临境音厅",
				"url": ""
			}],
			"lat": 23.21699,
			"lng": 113.2529,
			"mark": 0,
			"nm": "中影聚丰国际影城（白云店）",
			"poiId": 160809485,
			"price": 19.9,
			"promotion": {
				"cardPromotionTag": "",
				"couponPromotionTag": "",
				"merchantActivityTag": "",
				"packShowActivityTag": "",
				"platformActivityTag": "追虎擒龙特惠",
				"starActivityTag": ""
			},
			"referencePrice": "0",
			"score": 600.0,
			"sellPrice": "19.9",
			"shopId": 94015266,
			"showTimes": "",
			"tag": {
				"allowRefund": 0,
				"buyout": 0,
				"cityCardTag": 0,
				"deal": 0,
				"endorse": 1,
				"giftTag": "",
				"hallType": ["DTS:X 临境音厅"],
				"hallTypeVOList": [{
					"name": "DTS:X 临境音厅",
					"url": ""
				}],
				"sell": 1,
				"snack": 1,
				"vipTag": ""
			}
		}, {
			"addr": "白云区云城西路890号凯德广场·云尚5楼",
			"cellShows": [],
			"cityId": 20,
			"dis": 5391.065834345794,
			"distance": "5.4km",
			"follow": 0,
			"id": 17066,
			"labels": [{
				"color": "#579daf",
				"name": "LUXE巨幕厅",
				"url": ""
			}],
			"lat": 23.181059,
			"lng": 113.26966,
			"mark": 0,
			"nm": "百老汇影城（凯德店）",
			"poiId": 79147249,
			"price": 19.9,
			"promotion": {
				"cardPromotionTag": "",
				"couponPromotionTag": "",
				"merchantActivityTag": "",
				"packShowActivityTag": "",
				"platformActivityTag": "悬崖之上等4部影片特惠",
				"starActivityTag": ""
			},
			"referencePrice": "0",
			"score": 530.0,
			"sellPrice": "19.9",
			"shopId": 23587203,
			"showTimes": "",
			"tag": {
				"allowRefund": 0,
				"buyout": 0,
				"cityCardTag": 0,
				"deal": 0,
				"endorse": 0,
				"giftTag": "",
				"hallType": ["LUXE巨幕厅"],
				"hallTypeVOList": [{
					"name": "LUXE巨幕厅",
					"url": ""
				}],
				"sell": 1,
				"snack": 0,
				"vipTag": ""
			}
		}, {
			"addr": "白云区新市黄石西路金国广场二楼",
			"cellShows": [],
			"cityId": 20,
			"dis": 5454.878907896305,
			"distance": "5.5km",
			"follow": 0,
			"id": 26695,
			"labels": [{
				"color": "#579daf",
				"name": "退",
				"url": ""
			}, {
				"color": "#579daf",
				"name": "改签",
				"url": ""
			}],
			"lat": 23.204426,
			"lng": 113.25382,
			"mark": 0,
			"nm": "左岸国际影城（黄石店）",
			"poiId": 191305815,
			"price": 12.9,
			"promotion": {
				"cardPromotionTag": "",
				"couponPromotionTag": "",
				"merchantActivityTag": "影院特惠促销",
				"packShowActivityTag": "",
				"platformActivityTag": "我的姐姐等24部影片特惠",
				"starActivityTag": ""
			},
			"referencePrice": "0",
			"score": 600.0,
			"sellPrice": "12.9",
			"shopId": 128486836,
			"showTimes": "",
			"tag": {
				"allowRefund": 1,
				"buyout": 0,
				"cityCardTag": 0,
				"deal": 0,
				"endorse": 1,
				"giftTag": "",
				"hallType": [],
				"hallTypeVOList": [],
				"sell": 1,
				"snack": 0,
				"vipTag": ""
			}
		}, {
			"addr": "白云区大源南路大源商业广场东二栋3楼",
			"cellShows": [],
			"cityId": 20,
			"dis": 5487.485878570033,
			"distance": "5.5km",
			"follow": 0,
			"id": 24611,
			"labels": [{
				"color": "#579daf",
				"name": "改签",
				"url": ""
			}, {
				"color": "#ff9900",
				"name": "小吃",
				"url": ""
			}, {
				"color": "#579daf",
				"name": "杜比全景声厅",
				"url": ""
			}, {
				"color": "#579daf",
				"name": "DTS:X 临境音厅",
				"url": ""
			}],
			"lat": 23.24547,
			"lng": 113.349174,
			"mark": 0,
			"nm": "大导演激光巨幕影城（大源店）",
			"poiId": 164967321,
			"price": 19.9,
			"promotion": {
				"cardPromotionTag": "",
				"couponPromotionTag": "",
				"merchantActivityTag": "",
				"packShowActivityTag": "",
				"platformActivityTag": "悬崖之上等4部影片特惠",
				"starActivityTag": ""
			},
			"referencePrice": "0",
			"score": 600.0,
			"sellPrice": "19.9",
			"shopId": 98058947,
			"showTimes": "",
			"tag": {
				"allowRefund": 0,
				"buyout": 0,
				"cityCardTag": 0,
				"deal": 0,
				"endorse": 1,
				"giftTag": "",
				"hallType": ["杜比全景声厅", "DTS:X 临境音厅"],
				"hallTypeVOList": [{
					"name": "杜比全景声厅",
					"url": ""
				}, {
					"name": "DTS:X 临境音厅",
					"url": ""
				}],
				"sell": 1,
				"snack": 1,
				"vipTag": ""
			}
		}],
		"ct_pois": [{
			"ct_poi": "936879945111165696_a106_c0",
			"poiid": 657260
		}, {
			"ct_poi": "936879945111165696_a24775_c1",
			"poiid": 164970833
		}, {
			"ct_poi": "936879945111165696_a1644_c2",
			"poiid": 1416235
		}, {
			"ct_poi": "936879945111165696_a25520_c3",
			"poiid": 174896957
		}, {
			"ct_poi": "936879945111165696_a13620_c4",
			"poiid": 64348324
		}, {
			"ct_poi": "936879945111165696_a118_c5",
			"poiid": 635698
		}, {
			"ct_poi": "936879945111165696_a36486_c6",
			"poiid": 1450835936
		}, {
			"ct_poi": "936879945111165696_a26277_c7",
			"poiid": 189947950
		}, {
			"ct_poi": "936879945111165696_a23973_c8",
			"poiid": 160809485
		}, {
			"ct_poi": "936879945111165696_a17066_c9",
			"poiid": 79147249
		}, {
			"ct_poi": "936879945111165696_a26695_c10",
			"poiid": 191305815
		}, {
			"ct_poi": "936879945111165696_a24611_c11",
			"poiid": 164967321
		}],
		"paging": {
			"hasMore": true,
			"limit": 12,
			"offset": 12,
			"total": 271
		}
	},
	"errMsg": "",
	"success": true
}
