{
	"code": 0,
	"data": {
		"cinemas": [{
			"addr": "白云区金沙洲路111号之四层",
			"cellShows": [],
			"cityId": 20,
			"dis": 12068.856475747443,
			"distance": "12.1km",
			"follow": 0,
			"id": 26081,
			"labels": [{
				"color": "#579daf",
				"name": "退",
				"url": ""
			}, {
				"color": "#579daf",
				"name": "改签",
				"url": ""
			}],
			"lat": 23.158195,
			"lng": 113.20596,
			"mark": 0,
			"nm": "哈艺时尚影城（金沙洲店）",
			"poiId": 188928609,
			"price": 13.0,
			"promotion": {
				"cardPromotionTag": "",
				"couponPromotionTag": "",
				"merchantActivityTag": "",
				"packShowActivityTag": "",
				"platformActivityTag": "悬崖之上等5部影片特惠",
				"starActivityTag": ""
			},
			"referencePrice": "0",
			"score": 600.0,
			"sellPrice": "13",
			"shopId": 126226036,
			"showTimes": "",
			"tag": {
				"allowRefund": 1,
				"buyout": 0,
				"cityCardTag": 0,
				"deal": 0,
				"endorse": 1,
				"giftTag": "",
				"hallType": [],
				"hallTypeVOList": [],
				"sell": 1,
				"snack": 0,
				"vipTag": ""
			}
		}, {
			"addr": "荔湾区广州市中山八路12号华润万家4楼百川影城",
			"cellShows": [],
			"cityId": 20,
			"dis": 12081.941748798714,
			"distance": "12.1km",
			"follow": 0,
			"id": 35947,
			"labels": [{
				"color": "#579daf",
				"name": "退",
				"url": ""
			}, {
				"color": "#579daf",
				"name": "改签",
				"url": ""
			}, {
				"color": "#ff9900",
				"name": "小吃",
				"url": ""
			}],
			"lat": 23.12595,
			"lng": 113.2403,
			"mark": 0,
			"nm": "百川国际影城（荔湾华润万家店）",
			"poiId": 1067233412,
			"price": 19.9,
			"promotion": {
				"cardPromotionTag": "",
				"couponPromotionTag": "",
				"merchantActivityTag": "影院特惠促销",
				"packShowActivityTag": "",
				"platformActivityTag": "名侦探柯南：绯色的子弹等12部影片特惠",
				"starActivityTag": ""
			},
			"referencePrice": "0",
			"score": 600.0,
			"sellPrice": "19.9",
			"shopId": 1067233412,
			"showTimes": "",
			"tag": {
				"allowRefund": 1,
				"buyout": 0,
				"cityCardTag": 0,
				"deal": 0,
				"endorse": 1,
				"giftTag": "",
				"hallType": [],
				"hallTypeVOList": [],
				"sell": 1,
				"snack": 1,
				"vipTag": ""
			}
		}, {
			"addr": "荔湾区康王中路486号和业广场4楼（龙津东路口）",
			"cellShows": [],
			"cityId": 20,
			"dis": 12114.695749035185,
			"distance": "12.1km",
			"follow": 0,
			"id": 49,
			"labels": [{
				"color": "#ff9900",
				"name": "小吃",
				"url": ""
			}],
			"lat": 23.121655,
			"lng": 113.24733,
			"mark": 0,
			"nm": "金逸影城（和业店）",
			"poiId": 650617,
			"price": 19.9,
			"promotion": {
				"cardPromotionTag": "",
				"couponPromotionTag": "",
				"merchantActivityTag": "",
				"packShowActivityTag": "",
				"platformActivityTag": "悬崖之上等3部影片特惠",
				"starActivityTag": ""
			},
			"referencePrice": "70",
			"score": 683.871,
			"sellPrice": "19.9",
			"shopId": 4546541,
			"showTimes": "",
			"tag": {
				"allowRefund": 0,
				"buyout": 0,
				"cityCardTag": 0,
				"deal": 0,
				"endorse": 0,
				"giftTag": "",
				"hallType": [],
				"hallTypeVOList": [],
				"sell": 1,
				"snack": 1,
				"vipTag": ""
			}
		}, {
			"addr": "荔湾区南岸路45号圣地新天地广场3楼",
			"cellShows": [],
			"cityId": 20,
			"dis": 12133.017863502828,
			"distance": "12.1km",
			"follow": 0,
			"id": 16487,
			"labels": [{
				"color": "#579daf",
				"name": "退",
				"url": ""
			}, {
				"color": "#579daf",
				"name": "改签",
				"url": ""
			}, {
				"color": "#ff9900",
				"name": "小吃",
				"url": ""
			}],
			"lat": 23.132832,
			"lng": 113.229416,
			"mark": 0,
			"nm": "博亚国际影城（南岸路店）",
			"poiId": 116472236,
			"price": 19.9,
			"promotion": {
				"cardPromotionTag": "",
				"couponPromotionTag": "",
				"merchantActivityTag": "",
				"packShowActivityTag": "",
				"platformActivityTag": "悬崖之上等4部影片特惠",
				"starActivityTag": ""
			},
			"referencePrice": "0",
			"score": 872.7273,
			"sellPrice": "19.9",
			"shopId": 73429800,
			"showTimes": "",
			"tag": {
				"allowRefund": 1,
				"buyout": 0,
				"cityCardTag": 0,
				"deal": 0,
				"endorse": 1,
				"giftTag": "",
				"hallType": [],
				"hallTypeVOList": [],
				"sell": 1,
				"snack": 1,
				"vipTag": ""
			}
		}, {
			"addr": "天河区棠德南路44号乐天棠德广场2楼",
			"cellShows": [],
			"cityId": 20,
			"dis": 12189.707007315043,
			"distance": "12.2km",
			"follow": 0,
			"id": 16362,
			"labels": [{
				"color": "#579daf",
				"name": "退",
				"url": ""
			}, {
				"color": "#579daf",
				"name": "改签",
				"url": ""
			}, {
				"color": "#ff9900",
				"name": "小吃",
				"url": ""
			}],
			"lat": 23.13215,
			"lng": 113.381676,
			"mark": 0,
			"nm": "龙影国际影城（棠下店）",
			"poiId": 103842113,
			"price": 19.9,
			"promotion": {
				"cardPromotionTag": "",
				"couponPromotionTag": "",
				"merchantActivityTag": "",
				"packShowActivityTag": "",
				"platformActivityTag": "阳光劫匪等5部影片特惠",
				"starActivityTag": ""
			},
			"referencePrice": "0",
			"score": 672.97296,
			"sellPrice": "19.9",
			"shopId": 69079700,
			"showTimes": "",
			"tag": {
				"allowRefund": 1,
				"buyout": 0,
				"cityCardTag": 0,
				"deal": 0,
				"endorse": 1,
				"giftTag": "",
				"hallType": [],
				"hallTypeVOList": [],
				"sell": 1,
				"snack": 1,
				"vipTag": ""
			}
		}, {
			"addr": "海珠区阅江西路222号广州塔B功能区（17-22楼）",
			"cellShows": [],
			"cityId": 20,
			"dis": 12395.926916901319,
			"distance": "12.4km",
			"follow": 0,
			"id": 7927,
			"labels": [{
				"color": "#579daf",
				"name": "MX4D厅",
				"url": ""
			}],
			"lat": 23.106466,
			"lng": 113.32465,
			"mark": 0,
			"nm": "金逸空中电影城（阅江西路店）",
			"poiId": 2532134,
			"price": 34.9,
			"promotion": {
				"cardPromotionTag": "",
				"couponPromotionTag": "",
				"merchantActivityTag": "",
				"packShowActivityTag": "",
				"platformActivityTag": "阳光劫匪等3部影片特惠",
				"starActivityTag": ""
			},
			"referencePrice": "0",
			"score": 805.2631,
			"sellPrice": "34.9",
			"shopId": 9027269,
			"showTimes": "",
			"tag": {
				"allowRefund": 0,
				"buyout": 0,
				"cityCardTag": 0,
				"deal": 0,
				"endorse": 0,
				"giftTag": "",
				"hallType": ["MX4D厅"],
				"hallTypeVOList": [{
					"name": "MX4D厅",
					"url": ""
				}],
				"sell": 1,
				"snack": 0,
				"vipTag": ""
			}
		}, {
			"addr": "海珠区同福东路663号富基广场二期五楼（市二宫地铁站B出口直达）",
			"cellShows": [],
			"cityId": 20,
			"dis": 12690.876847855225,
			"distance": "12.7km",
			"follow": 0,
			"id": 28831,
			"labels": [{
				"color": "#579daf",
				"name": "退",
				"url": ""
			}, {
				"color": "#579daf",
				"name": "改签",
				"url": ""
			}, {
				"color": "#579daf",
				"name": "杜比全景声厅",
				"url": ""
			}],
			"lat": 23.10705,
			"lng": 113.27055,
			"mark": 0,
			"nm": "嘉悦国际影城（富基广场店）",
			"poiId": 1330014491,
			"price": 9.8,
			"promotion": {
				"cardPromotionTag": "",
				"couponPromotionTag": "",
				"merchantActivityTag": "影院特惠促销",
				"packShowActivityTag": "",
				"platformActivityTag": "名侦探柯南：绯色的子弹等15部影片特惠",
				"starActivityTag": ""
			},
			"referencePrice": "0",
			"score": 600.0,
			"sellPrice": "9.8",
			"shopId": 1330014491,
			"showTimes": "",
			"tag": {
				"allowRefund": 1,
				"buyout": 0,
				"cityCardTag": 0,
				"deal": 0,
				"endorse": 1,
				"giftTag": "",
				"hallType": ["杜比全景声厅"],
				"hallTypeVOList": [{
					"name": "杜比全景声厅",
					"url": ""
				}],
				"sell": 1,
				"snack": 0,
				"vipTag": ""
			}
		}, {
			"addr": "荔湾区逢源路153号（近西关永庆坊旅游区）",
			"cellShows": [],
			"cityId": 20,
			"dis": 12698.994534873997,
			"distance": "12.7km",
			"follow": 0,
			"id": 3,
			"labels": [{
				"color": "#579daf",
				"name": "改签",
				"url": ""
			}, {
				"color": "#ff9900",
				"name": "小吃",
				"url": ""
			}, {
				"color": "#579daf",
				"name": "巨幕厅",
				"url": ""
			}],
			"lat": 23.12033,
			"lng": 113.238625,
			"mark": 0,
			"nm": "华影万晟国际影城",
			"poiId": 87309,
			"price": 19.9,
			"promotion": {
				"cardPromotionTag": "",
				"couponPromotionTag": "",
				"merchantActivityTag": "",
				"packShowActivityTag": "",
				"platformActivityTag": "悬崖之上等5部影片特惠",
				"starActivityTag": ""
			},
			"referencePrice": "70",
			"score": 727.1523,
			"sellPrice": "19.9",
			"shopId": 5596649,
			"showTimes": "",
			"tag": {
				"allowRefund": 0,
				"buyout": 0,
				"cityCardTag": 0,
				"deal": 0,
				"endorse": 1,
				"giftTag": "",
				"hallType": ["巨幕厅"],
				"hallTypeVOList": [{
					"name": "巨幕厅",
					"url": ""
				}],
				"sell": 1,
				"snack": 1,
				"vipTag": ""
			}
		}, {
			"addr": "荔湾区下九路58-60号东方汇五楼（上下九广场）",
			"cellShows": [],
			"cityId": 20,
			"dis": 12797.001240510614,
			"distance": "12.8km",
			"follow": 0,
			"id": 27413,
			"labels": [{
				"color": "#579daf",
				"name": "退",
				"url": ""
			}, {
				"color": "#579daf",
				"name": "改签",
				"url": ""
			}, {
				"color": "#579daf",
				"name": "杜比全景声厅",
				"url": ""
			}],
			"lat": 23.114391,
			"lng": 113.2479,
			"mark": 0,
			"nm": "期遇•隽电影城（上下九东方汇店）",
			"poiId": 195073215,
			"price": 19.9,
			"promotion": {
				"cardPromotionTag": "",
				"couponPromotionTag": "",
				"merchantActivityTag": "",
				"packShowActivityTag": "",
				"platformActivityTag": "悬崖之上等4部影片特惠",
				"starActivityTag": ""
			},
			"referencePrice": "0",
			"score": 600.0,
			"sellPrice": "19.9",
			"shopId": 132088419,
			"showTimes": "",
			"tag": {
				"allowRefund": 1,
				"buyout": 0,
				"cityCardTag": 0,
				"deal": 0,
				"endorse": 1,
				"giftTag": "",
				"hallType": ["杜比全景声厅"],
				"hallTypeVOList": [{
					"name": "杜比全景声厅",
					"url": ""
				}],
				"sell": 1,
				"snack": 0,
				"vipTag": ""
			}
		}, {
			"addr": "白云区人和大街3号首层",
			"cellShows": [],
			"cityId": 20,
			"dis": 12815.642467513286,
			"distance": "12.8km",
			"follow": 0,
			"id": 27365,
			"labels": [{
				"color": "#579daf",
				"name": "退",
				"url": ""
			}, {
				"color": "#579daf",
				"name": "改签",
				"url": ""
			}, {
				"color": "#ff9900",
				"name": "小吃",
				"url": ""
			}],
			"lat": 23.331833,
			"lng": 113.299866,
			"mark": 0,
			"nm": "中影美妙影城（人和店）",
			"poiId": 194677880,
			"price": 19.9,
			"promotion": {
				"cardPromotionTag": "",
				"couponPromotionTag": "",
				"merchantActivityTag": "",
				"packShowActivityTag": "",
				"platformActivityTag": "追虎擒龙等5部影片特惠",
				"starActivityTag": ""
			},
			"referencePrice": "0",
			"score": 600.0,
			"sellPrice": "19.9",
			"shopId": 131700776,
			"showTimes": "",
			"tag": {
				"allowRefund": 1,
				"buyout": 0,
				"cityCardTag": 0,
				"deal": 0,
				"endorse": 1,
				"giftTag": "",
				"hallType": [],
				"hallTypeVOList": [],
				"sell": 1,
				"snack": 1,
				"vipTag": ""
			}
		}, {
			"addr": "天河区中山大道西1138号合生骏景广场三楼",
			"cellShows": [],
			"cityId": 20,
			"dis": 12846.19275446968,
			"distance": "12.8km",
			"follow": 0,
			"id": 15966,
			"labels": [{
				"color": "#579daf",
				"name": "退",
				"url": ""
			}, {
				"color": "#579daf",
				"name": "改签",
				"url": ""
			}, {
				"color": "#ff9900",
				"name": "小吃",
				"url": ""
			}],
			"lat": 23.12489,
			"lng": 113.38207,
			"mark": 0,
			"nm": "哈艺时尚影城（合生骏景店）",
			"poiId": 99328362,
			"price": 19.9,
			"promotion": {
				"cardPromotionTag": "",
				"couponPromotionTag": "",
				"merchantActivityTag": "",
				"packShowActivityTag": "",
				"platformActivityTag": "悬崖之上等4部影片特惠",
				"starActivityTag": ""
			},
			"referencePrice": "0",
			"score": 387.5,
			"sellPrice": "19.9",
			"shopId": 67331368,
			"showTimes": "",
			"tag": {
				"allowRefund": 1,
				"buyout": 0,
				"cityCardTag": 0,
				"deal": 0,
				"endorse": 1,
				"giftTag": "",
				"hallType": [],
				"hallTypeVOList": [],
				"sell": 1,
				"snack": 1,
				"vipTag": ""
			}
		}, {
			"addr": "荔湾区海荟城广场4楼 左岸影城（西郊泳场旁）",
			"cellShows": [],
			"cityId": 20,
			"dis": 12965.141054686583,
			"distance": "13.0km",
			"follow": 0,
			"id": 27194,
			"labels": [{
				"color": "#579daf",
				"name": "退",
				"url": ""
			}, {
				"color": "#579daf",
				"name": "改签",
				"url": ""
			}, {
				"color": "#ff9900",
				"name": "小吃",
				"url": ""
			}],
			"lat": 23.123613,
			"lng": 113.22894,
			"mark": 0,
			"nm": "左岸国际影城（海荟城店）",
			"poiId": 193757233,
			"price": 13.0,
			"promotion": {
				"cardPromotionTag": "",
				"couponPromotionTag": "",
				"merchantActivityTag": "",
				"packShowActivityTag": "",
				"platformActivityTag": "悬崖之上等5部影片特惠",
				"starActivityTag": ""
			},
			"referencePrice": "0",
			"score": 600.0,
			"sellPrice": "13",
			"shopId": 130789631,
			"showTimes": "",
			"tag": {
				"allowRefund": 1,
				"buyout": 0,
				"cityCardTag": 0,
				"deal": 0,
				"endorse": 1,
				"giftTag": "",
				"hallType": [],
				"hallTypeVOList": [],
				"sell": 1,
				"snack": 1,
				"vipTag": ""
			}
		}],
		"ct_pois": [{
			"ct_poi": "936879945111165696_a26081_c0",
			"poiid": 188928609
		}, {
			"ct_poi": "936879945111165696_a35947_c1",
			"poiid": 1067233412
		}, {
			"ct_poi": "936879945111165696_a49_c2",
			"poiid": 650617
		}, {
			"ct_poi": "936879945111165696_a16487_c3",
			"poiid": 116472236
		}, {
			"ct_poi": "936879945111165696_a16362_c4",
			"poiid": 103842113
		}, {
			"ct_poi": "936879945111165696_a7927_c5",
			"poiid": 2532134
		}, {
			"ct_poi": "936879945111165696_a28831_c6",
			"poiid": 1330014491
		}, {
			"ct_poi": "936879945111165696_a3_c7",
			"poiid": 87309
		}, {
			"ct_poi": "936879945111165696_a27413_c8",
			"poiid": 195073215
		}, {
			"ct_poi": "936879945111165696_a27365_c9",
			"poiid": 194677880
		}, {
			"ct_poi": "936879945111165696_a15966_c10",
			"poiid": 99328362
		}, {
			"ct_poi": "936879945111165696_a27194_c11",
			"poiid": 193757233
		}],
		"paging": {
			"hasMore": true,
			"limit": 12,
			"offset": 84,
			"total": 271
		}
	},
	"errMsg": "",
	"success": true
}
