{
	"code": 0,
	"data": {
		"cinemas": [{
			"addr": "天河区珠江东路6号K11购物艺术中心5F",
			"cellShows": [],
			"cityId": 20,
			"dis": 11087.584879892607,
			"distance": "11.1km",
			"follow": 0,
			"id": 25198,
			"labels": [{
				"color": "#579daf",
				"name": "改签",
				"url": ""
			}, {
				"color": "#579daf",
				"name": "4DX厅",
				"url": ""
			}],
			"lat": 23.118639,
			"lng": 113.32602,
			"mark": 0,
			"nm": "CGV影城（K11 4DX店）",
			"poiId": 168940503,
			"price": 54.0,
			"promotion": {
				"cardPromotionTag": "",
				"couponPromotionTag": "",
				"merchantActivityTag": "",
				"packShowActivityTag": "",
				"platformActivityTag": "",
				"starActivityTag": ""
			},
			"referencePrice": "0",
			"score": 600.0,
			"sellPrice": "54",
			"shopId": 102038273,
			"showTimes": "",
			"tag": {
				"allowRefund": 0,
				"buyout": 0,
				"cityCardTag": 0,
				"deal": 0,
				"endorse": 1,
				"giftTag": "",
				"hallType": ["4DX厅"],
				"hallTypeVOList": [{
					"name": "4DX厅",
					"url": ""
				}],
				"sell": 1,
				"snack": 0,
				"vipTag": ""
			}
		}, {
			"addr": "天河区广园东路智汇park博汇街6号C栋三楼",
			"cellShows": [],
			"cityId": 20,
			"dis": 11110.434020576531,
			"distance": "11.1km",
			"follow": 0,
			"id": 27428,
			"labels": [{
				"color": "#579daf",
				"name": "退",
				"url": ""
			}, {
				"color": "#579daf",
				"name": "改签",
				"url": ""
			}, {
				"color": "#ff9900",
				"name": "小吃",
				"url": ""
			}],
			"lat": 23.14027,
			"lng": 113.37577,
			"mark": 0,
			"nm": "艺达国际影城（天河棠下店）",
			"poiId": 195169499,
			"price": 19.9,
			"promotion": {
				"cardPromotionTag": "",
				"couponPromotionTag": "",
				"merchantActivityTag": "影院特惠促销",
				"packShowActivityTag": "",
				"platformActivityTag": "我的姐姐等20部影片特惠",
				"starActivityTag": ""
			},
			"referencePrice": "0",
			"score": 600.0,
			"sellPrice": "19.9",
			"shopId": 132183862,
			"showTimes": "",
			"tag": {
				"allowRefund": 1,
				"buyout": 0,
				"cityCardTag": 0,
				"deal": 0,
				"endorse": 1,
				"giftTag": "",
				"hallType": [],
				"hallTypeVOList": [],
				"sell": 1,
				"snack": 1,
				"vipTag": ""
			}
		}, {
			"addr": "越秀区西湖路63号光明广场7层（北京路广百南门对面）",
			"cellShows": [],
			"cityId": 20,
			"dis": 11151.716373694566,
			"distance": "11.2km",
			"follow": 0,
			"id": 5521,
			"labels": [{
				"color": "#579daf",
				"name": "杜比全景声厅",
				"url": ""
			}],
			"lat": 23.122644,
			"lng": 113.26728,
			"mark": 0,
			"nm": "星汇电影城",
			"poiId": 2428366,
			"price": 19.9,
			"promotion": {
				"cardPromotionTag": "",
				"couponPromotionTag": "",
				"merchantActivityTag": "",
				"packShowActivityTag": "",
				"platformActivityTag": "悬崖之上等5部影片特惠",
				"starActivityTag": ""
			},
			"referencePrice": "0",
			"score": 718.9655,
			"sellPrice": "19.9",
			"shopId": 13715061,
			"showTimes": "",
			"tag": {
				"allowRefund": 0,
				"buyout": 0,
				"cityCardTag": 0,
				"deal": 0,
				"endorse": 0,
				"giftTag": "",
				"hallType": ["杜比全景声厅"],
				"hallTypeVOList": [{
					"name": "杜比全景声厅",
					"url": ""
				}],
				"sell": 1,
				"snack": 0,
				"vipTag": ""
			}
		}, {
			"addr": "越秀区北京路186号3楼（潮楼对面）",
			"cellShows": [],
			"cityId": 20,
			"dis": 11220.707050913787,
			"distance": "11.2km",
			"follow": 0,
			"id": 2478,
			"labels": [{
				"color": "#579daf",
				"name": "改签",
				"url": ""
			}],
			"lat": 23.121223,
			"lng": 113.26958,
			"mark": 0,
			"nm": "永汉电影院",
			"poiId": 1541511,
			"price": 0.0,
			"promotion": {
				"cardPromotionTag": "",
				"couponPromotionTag": "",
				"merchantActivityTag": "",
				"packShowActivityTag": "",
				"platformActivityTag": "",
				"starActivityTag": ""
			},
			"referencePrice": "0",
			"score": 719.04767,
			"sellPrice": "",
			"shopId": 1595977,
			"showTimes": "",
			"tag": {
				"allowRefund": 0,
				"buyout": 0,
				"cityCardTag": 0,
				"deal": 0,
				"endorse": 1,
				"giftTag": "",
				"hallType": [],
				"hallTypeVOList": [],
				"sell": 1,
				"snack": 0,
				"vipTag": ""
			}
		}, {
			"addr": "越秀区北京路168号粤海仰忠汇8层",
			"cellShows": [],
			"cityId": 20,
			"dis": 11375.785131784949,
			"distance": "11.4km",
			"follow": 0,
			"id": 26248,
			"labels": [{
				"color": "#579daf",
				"name": "改签",
				"url": ""
			}],
			"lat": 23.1196,
			"lng": 113.27005,
			"mark": 0,
			"nm": "CGV影城（北京路4DX店）",
			"poiId": 189871012,
			"price": 19.9,
			"promotion": {
				"cardPromotionTag": "",
				"couponPromotionTag": "",
				"merchantActivityTag": "",
				"packShowActivityTag": "",
				"platformActivityTag": "悬崖之上等5部影片特惠",
				"starActivityTag": ""
			},
			"referencePrice": "0",
			"score": 600.0,
			"sellPrice": "19.9",
			"shopId": 127113265,
			"showTimes": "",
			"tag": {
				"allowRefund": 0,
				"buyout": 0,
				"cityCardTag": 0,
				"deal": 0,
				"endorse": 1,
				"giftTag": "",
				"hallType": [],
				"hallTypeVOList": [],
				"sell": 1,
				"snack": 0,
				"vipTag": ""
			}
		}, {
			"addr": "白云区松南路1号汇锦新天地广场D栋1-3楼（近富力半岛花园，罗冲围客运站旁）",
			"cellShows": [],
			"cityId": 20,
			"dis": 11377.76203169209,
			"distance": "11.4km",
			"follow": 0,
			"id": 2386,
			"labels": [{
				"color": "#579daf",
				"name": "退",
				"url": ""
			}, {
				"color": "#579daf",
				"name": "改签",
				"url": ""
			}, {
				"color": "#ff9900",
				"name": "小吃",
				"url": ""
			}],
			"lat": 23.14935,
			"lng": 113.221596,
			"mark": 0,
			"nm": "左岸国际影城（罗冲围店）",
			"poiId": 1541513,
			"price": 13.0,
			"promotion": {
				"cardPromotionTag": "",
				"couponPromotionTag": "",
				"merchantActivityTag": "",
				"packShowActivityTag": "",
				"platformActivityTag": "追虎擒龙等3部影片特惠",
				"starActivityTag": ""
			},
			"referencePrice": "70",
			"score": 716.6666,
			"sellPrice": "13",
			"shopId": 6125537,
			"showTimes": "",
			"tag": {
				"allowRefund": 1,
				"buyout": 0,
				"cityCardTag": 0,
				"deal": 0,
				"endorse": 1,
				"giftTag": "",
				"hallType": [],
				"hallTypeVOList": [],
				"sell": 1,
				"snack": 1,
				"vipTag": ""
			}
		}, {
			"addr": "天河区华观路1932号天河万科广场4层",
			"cellShows": [],
			"cityId": 20,
			"dis": 11517.435717442566,
			"distance": "11.5km",
			"follow": 0,
			"id": 26902,
			"labels": [{
				"color": "#579daf",
				"name": "改签",
				"url": ""
			}, {
				"color": "#ff9900",
				"name": "小吃",
				"url": ""
			}, {
				"color": "#579daf",
				"name": "IMAX厅",
				"url": ""
			}],
			"lat": 23.16686,
			"lng": 113.404465,
			"mark": 0,
			"nm": "万达影城（天河万科广场IMAX店）",
			"poiId": 191531079,
			"price": 15.0,
			"promotion": {
				"cardPromotionTag": "",
				"couponPromotionTag": "",
				"merchantActivityTag": "",
				"packShowActivityTag": "",
				"platformActivityTag": "悬崖之上等3部影片特惠",
				"starActivityTag": ""
			},
			"referencePrice": "0",
			"score": 600.0,
			"sellPrice": "15",
			"shopId": 128717451,
			"showTimes": "",
			"tag": {
				"allowRefund": 0,
				"buyout": 0,
				"cityCardTag": 0,
				"deal": 0,
				"endorse": 1,
				"giftTag": "",
				"hallType": ["IMAX厅"],
				"hallTypeVOList": [{
					"name": "IMAX厅",
					"url": ""
				}],
				"sell": 1,
				"snack": 1,
				"vipTag": ""
			}
		}, {
			"addr": "天河区珠江新城兴民路222号天汇广场igcL416",
			"cellShows": [],
			"cityId": 20,
			"dis": 11519.781290601346,
			"distance": "11.5km",
			"follow": 0,
			"id": 16407,
			"labels": [{
				"color": "#579daf",
				"name": "IMAX厅",
				"url": ""
			}, {
				"color": "#579daf",
				"name": "RealD厅",
				"url": ""
			}, {
				"color": "#579daf",
				"name": "60帧厅",
				"url": ""
			}],
			"lat": 23.11571,
			"lng": 113.33135,
			"mark": 0,
			"nm": "百丽宫IMAX影城（猎德igc店）",
			"poiId": 113559614,
			"price": 33.9,
			"promotion": {
				"cardPromotionTag": "",
				"couponPromotionTag": "",
				"merchantActivityTag": "",
				"packShowActivityTag": "",
				"platformActivityTag": "追虎擒龙等3部影片特惠",
				"starActivityTag": ""
			},
			"referencePrice": "0",
			"score": 543.2433,
			"sellPrice": "33.9",
			"shopId": 70117174,
			"showTimes": "",
			"tag": {
				"allowRefund": 0,
				"buyout": 0,
				"cityCardTag": 0,
				"deal": 0,
				"endorse": 0,
				"giftTag": "",
				"hallType": ["IMAX厅", "RealD厅", "60帧厅"],
				"hallTypeVOList": [{
					"name": "IMAX厅",
					"url": ""
				}, {
					"name": "RealD厅",
					"url": ""
				}, {
					"name": "60帧厅",
					"url": ""
				}],
				"sell": 1,
				"snack": 0,
				"vipTag": ""
			}
		}, {
			"addr": "荔湾区荔湾路97号动感小西关",
			"cellShows": [],
			"cityId": 20,
			"dis": 11599.74757357048,
			"distance": "11.6km",
			"follow": 0,
			"id": 25092,
			"labels": [{
				"color": "#579daf",
				"name": "改签",
				"url": ""
			}, {
				"color": "#ff9900",
				"name": "小吃",
				"url": ""
			}, {
				"color": "#579daf",
				"name": "CGS中国巨幕厅",
				"url": ""
			}, {
				"color": "#579daf",
				"name": "杜比全景声厅",
				"url": ""
			}],
			"lat": 23.1291,
			"lng": 113.24368,
			"mark": 0,
			"nm": "YES梦想红石影城（中国巨幕CGS荔湾店）",
			"poiId": 165650629,
			"price": 19.9,
			"promotion": {
				"cardPromotionTag": "",
				"couponPromotionTag": "",
				"merchantActivityTag": "影院特惠促销",
				"packShowActivityTag": "",
				"platformActivityTag": "指环王：双塔奇兵等19部影片特惠",
				"starActivityTag": ""
			},
			"referencePrice": "0",
			"score": 600.0,
			"sellPrice": "19.9",
			"shopId": 98676933,
			"showTimes": "",
			"tag": {
				"allowRefund": 0,
				"buyout": 0,
				"cityCardTag": 0,
				"deal": 0,
				"endorse": 1,
				"giftTag": "",
				"hallType": ["CGS中国巨幕厅", "杜比全景声厅"],
				"hallTypeVOList": [{
					"name": "CGS中国巨幕厅",
					"url": ""
				}, {
					"name": "杜比全景声厅",
					"url": ""
				}],
				"sell": 1,
				"snack": 1,
				"vipTag": ""
			}
		}, {
			"addr": "天河区棠安路288号天盈创意园一楼",
			"cellShows": [],
			"cityId": 20,
			"dis": 11623.669315840376,
			"distance": "11.6km",
			"follow": 0,
			"id": 12406,
			"labels": [{
				"color": "#579daf",
				"name": "改签",
				"url": ""
			}],
			"lat": 23.134989,
			"lng": 113.37669,
			"mark": 0,
			"nm": "哈艺时尚影城（天河科韵店）",
			"poiId": 42198484,
			"price": 19.9,
			"promotion": {
				"cardPromotionTag": "",
				"couponPromotionTag": "",
				"merchantActivityTag": "影院特惠促销",
				"packShowActivityTag": "",
				"platformActivityTag": "悬崖之上等6部影片特惠",
				"starActivityTag": ""
			},
			"referencePrice": "0",
			"score": 686.88525,
			"sellPrice": "19.9",
			"shopId": 22065554,
			"showTimes": "",
			"tag": {
				"allowRefund": 0,
				"buyout": 0,
				"cityCardTag": 0,
				"deal": 0,
				"endorse": 1,
				"giftTag": "",
				"hallType": [],
				"hallTypeVOList": [],
				"sell": 1,
				"snack": 0,
				"vipTag": ""
			}
		}, {
			"addr": "越秀区南堤二马路36号",
			"cellShows": [],
			"cityId": 20,
			"dis": 11847.529934597029,
			"distance": "11.8km",
			"follow": 0,
			"id": 23610,
			"labels": [{
				"color": "#579daf",
				"name": "退",
				"url": ""
			}, {
				"color": "#579daf",
				"name": "改签",
				"url": ""
			}, {
				"color": "#ff9900",
				"name": "小吃",
				"url": ""
			}, {
				"color": "#579daf",
				"name": "MX4D厅",
				"url": ""
			}],
			"lat": 23.115227,
			"lng": 113.26973,
			"mark": 0,
			"nm": "广东工人电影院",
			"poiId": 158695080,
			"price": 19.9,
			"promotion": {
				"cardPromotionTag": "",
				"couponPromotionTag": "",
				"merchantActivityTag": "",
				"packShowActivityTag": "",
				"platformActivityTag": "悬崖之上等5部影片特惠",
				"starActivityTag": ""
			},
			"referencePrice": "0",
			"score": 930.0,
			"sellPrice": "19.9",
			"shopId": 91911450,
			"showTimes": "",
			"tag": {
				"allowRefund": 1,
				"buyout": 0,
				"cityCardTag": 0,
				"deal": 0,
				"endorse": 1,
				"giftTag": "",
				"hallType": ["MX4D厅"],
				"hallTypeVOList": [{
					"name": "MX4D厅",
					"url": ""
				}],
				"sell": 1,
				"snack": 1,
				"vipTag": ""
			}
		}, {
			"addr": "天河区员村二横路2号员村工人文化宫内（黄埔大道口）",
			"cellShows": [],
			"cityId": 20,
			"dis": 12002.606057239158,
			"distance": "12.0km",
			"follow": 0,
			"id": 176,
			"labels": [{
				"color": "#579daf",
				"name": "改签",
				"url": ""
			}, {
				"color": "#ff9900",
				"name": "小吃",
				"url": ""
			}],
			"lat": 23.122484,
			"lng": 113.36315,
			"mark": 0,
			"nm": "大地影院（广州员宫店）",
			"poiId": 1436408,
			"price": 19.9,
			"promotion": {
				"cardPromotionTag": "",
				"couponPromotionTag": "",
				"merchantActivityTag": "",
				"packShowActivityTag": "",
				"platformActivityTag": "悬崖之上等3部影片特惠",
				"starActivityTag": ""
			},
			"referencePrice": "30",
			"score": 730.8824,
			"sellPrice": "19.9",
			"shopId": 1595983,
			"showTimes": "",
			"tag": {
				"allowRefund": 0,
				"buyout": 0,
				"cityCardTag": 0,
				"deal": 0,
				"endorse": 1,
				"giftTag": "",
				"hallType": [],
				"hallTypeVOList": [],
				"sell": 1,
				"snack": 1,
				"vipTag": ""
			}
		}],
		"ct_pois": [{
			"ct_poi": "936879945111165696_a25198_c0",
			"poiid": 168940503
		}, {
			"ct_poi": "936879945111165696_a27428_c1",
			"poiid": 195169499
		}, {
			"ct_poi": "936879945111165696_a5521_c2",
			"poiid": 2428366
		}, {
			"ct_poi": "936879945111165696_a2478_c3",
			"poiid": 1541511
		}, {
			"ct_poi": "936879945111165696_a26248_c4",
			"poiid": 189871012
		}, {
			"ct_poi": "936879945111165696_a2386_c5",
			"poiid": 1541513
		}, {
			"ct_poi": "936879945111165696_a26902_c6",
			"poiid": 191531079
		}, {
			"ct_poi": "936879945111165696_a16407_c7",
			"poiid": 113559614
		}, {
			"ct_poi": "936879945111165696_a25092_c8",
			"poiid": 165650629
		}, {
			"ct_poi": "936879945111165696_a12406_c9",
			"poiid": 42198484
		}, {
			"ct_poi": "936879945111165696_a23610_c10",
			"poiid": 158695080
		}, {
			"ct_poi": "936879945111165696_a176_c11",
			"poiid": 1436408
		}],
		"paging": {
			"hasMore": true,
			"limit": 12,
			"offset": 72,
			"total": 271
		}
	},
	"errMsg": "",
	"success": true
}
