{
	"code": 0,
	"data": {
		"cinemas": [{
			"addr": "白云区机场路云霄街5号停机坪购物广场3楼（近地铁白云公园A出口）",
			"cellShows": [],
			"cityId": 20,
			"dis": 5629.918994610929,
			"distance": "5.6km",
			"follow": 0,
			"id": 30,
			"labels": [{
				"color": "#579daf",
				"name": "改签",
				"url": ""
			}, {
				"color": "#ff9900",
				"name": "小吃",
				"url": ""
			}],
			"lat": 23.181932,
			"lng": 113.26539,
			"mark": 0,
			"nm": "橙天嘉禾影城（广州五号停机坪店）",
			"poiId": 1525695,
			"price": 19.9,
			"promotion": {
				"cardPromotionTag": "",
				"couponPromotionTag": "",
				"merchantActivityTag": "",
				"packShowActivityTag": "",
				"platformActivityTag": "悬崖之上等4部影片特惠",
				"starActivityTag": ""
			},
			"referencePrice": "45",
			"score": 683.66016,
			"sellPrice": "19.9",
			"shopId": 5361596,
			"showTimes": "",
			"tag": {
				"allowRefund": 0,
				"buyout": 0,
				"cityCardTag": 0,
				"deal": 0,
				"endorse": 1,
				"giftTag": "",
				"hallType": [],
				"hallTypeVOList": [],
				"sell": 1,
				"snack": 1,
				"vipTag": ""
			}
		}, {
			"addr": "白云区太和镇龙归龙岗路1号（金铂广场）",
			"cellShows": [],
			"cityId": 20,
			"dis": 5775.943849280239,
			"distance": "5.8km",
			"follow": 0,
			"id": 8928,
			"labels": [{
				"color": "#579daf",
				"name": "退",
				"url": ""
			}, {
				"color": "#579daf",
				"name": "改签",
				"url": ""
			}, {
				"color": "#ff9900",
				"name": "小吃",
				"url": ""
			}, {
				"color": "#579daf",
				"name": "CGS中国巨幕厅",
				"url": ""
			}],
			"lat": 23.267612,
			"lng": 113.29457,
			"mark": 0,
			"nm": "中影凤凰影城（龙归店）",
			"poiId": 4690992,
			"price": 19.9,
			"promotion": {
				"cardPromotionTag": "",
				"couponPromotionTag": "",
				"merchantActivityTag": "",
				"packShowActivityTag": "",
				"platformActivityTag": "悬崖之上等4部影片特惠",
				"starActivityTag": ""
			},
			"referencePrice": "0",
			"score": 645.3608,
			"sellPrice": "19.9",
			"shopId": 17615236,
			"showTimes": "",
			"tag": {
				"allowRefund": 1,
				"buyout": 0,
				"cityCardTag": 0,
				"deal": 0,
				"endorse": 1,
				"giftTag": "",
				"hallType": ["CGS中国巨幕厅"],
				"hallTypeVOList": [{
					"name": "CGS中国巨幕厅",
					"url": ""
				}],
				"sell": 1,
				"snack": 1,
				"vipTag": ""
			}
		}, {
			"addr": "白云区均和街平沙商务大厦万仓隆3楼",
			"cellShows": [],
			"cityId": 20,
			"dis": 5962.980794545623,
			"distance": "6.0km",
			"follow": 0,
			"id": 15975,
			"labels": [{
				"color": "#579daf",
				"name": "改签",
				"url": ""
			}, {
				"color": "#ff9900",
				"name": "小吃",
				"url": ""
			}],
			"lat": 23.246521,
			"lng": 113.257065,
			"mark": 0,
			"nm": "龙影国际影城（白云平沙店）",
			"poiId": 95293132,
			"price": 19.9,
			"promotion": {
				"cardPromotionTag": "",
				"couponPromotionTag": "",
				"merchantActivityTag": "",
				"packShowActivityTag": "",
				"platformActivityTag": "悬崖之上等3部影片特惠",
				"starActivityTag": ""
			},
			"referencePrice": "0",
			"score": 703.7037,
			"sellPrice": "19.9",
			"shopId": 67590382,
			"showTimes": "",
			"tag": {
				"allowRefund": 0,
				"buyout": 0,
				"cityCardTag": 0,
				"deal": 0,
				"endorse": 1,
				"giftTag": "",
				"hallType": [],
				"hallTypeVOList": [],
				"sell": 1,
				"snack": 1,
				"vipTag": ""
			}
		}, {
			"addr": "天河区天源路5号天河新天地5楼（天河客运站D出口）",
			"cellShows": [],
			"cityId": 20,
			"dis": 6318.200079752921,
			"distance": "6.3km",
			"follow": 0,
			"id": 27130,
			"labels": [{
				"color": "#579daf",
				"name": "改签",
				"url": ""
			}],
			"lat": 23.171984,
			"lng": 113.343864,
			"mark": 0,
			"nm": "星汇影城（天河新天地广场店）",
			"poiId": 193610118,
			"price": 19.9,
			"promotion": {
				"cardPromotionTag": "",
				"couponPromotionTag": "",
				"merchantActivityTag": "",
				"packShowActivityTag": "",
				"platformActivityTag": "悬崖之上等4部影片特惠",
				"starActivityTag": ""
			},
			"referencePrice": "0",
			"score": 600.0,
			"sellPrice": "19.9",
			"shopId": 130643581,
			"showTimes": "",
			"tag": {
				"allowRefund": 0,
				"buyout": 0,
				"cityCardTag": 0,
				"deal": 0,
				"endorse": 1,
				"giftTag": "",
				"hallType": [],
				"hallTypeVOList": [],
				"sell": 1,
				"snack": 0,
				"vipTag": ""
			}
		}, {
			"addr": "白云区云城东路501号万达广场3层",
			"cellShows": [],
			"cityId": 20,
			"dis": 6354.240128056163,
			"distance": "6.4km",
			"follow": 0,
			"id": 59,
			"labels": [{
				"color": "#579daf",
				"name": "改签",
				"url": ""
			}, {
				"color": "#579daf",
				"name": "IMAX厅",
				"url": ""
			}, {
				"color": "#579daf",
				"name": "杜比全景声厅",
				"url": ""
			}, {
				"color": "#579daf",
				"name": "RealD 6FL厅",
				"url": ""
			}, {
				"color": "#579daf",
				"name": "MX4D厅",
				"url": ""
			}],
			"lat": 23.171982,
			"lng": 113.266685,
			"mark": 0,
			"nm": "万达影城（白云万达广场IMAX店）",
			"poiId": 79812,
			"price": 19.9,
			"promotion": {
				"cardPromotionTag": "",
				"couponPromotionTag": "",
				"merchantActivityTag": "",
				"packShowActivityTag": "",
				"platformActivityTag": "悬崖之上等3部影片特惠",
				"starActivityTag": ""
			},
			"referencePrice": "55",
			"score": 792.7835,
			"sellPrice": "19.9",
			"shopId": 4115513,
			"showTimes": "",
			"tag": {
				"allowRefund": 0,
				"buyout": 0,
				"cityCardTag": 0,
				"deal": 0,
				"endorse": 1,
				"giftTag": "",
				"hallType": ["IMAX厅", "杜比全景声厅", "RealD 6FL厅", "MX4D厅"],
				"hallTypeVOList": [{
					"name": "IMAX厅",
					"url": ""
				}, {
					"name": "杜比全景声厅",
					"url": ""
				}, {
					"name": "RealD 6FL厅",
					"url": ""
				}, {
					"name": "MX4D厅",
					"url": ""
				}],
				"sell": 1,
				"snack": 0,
				"vipTag": ""
			}
		}, {
			"addr": "天河区迎龙路163号弘马众创城1楼（九龙城旁，橙子酒店对面）",
			"cellShows": [],
			"cityId": 20,
			"dis": 6395.29368491081,
			"distance": "6.4km",
			"follow": 0,
			"id": 25545,
			"labels": [{
				"color": "#ff9900",
				"name": "小吃",
				"url": ""
			}, {
				"color": "#579daf",
				"name": "杜比全景声厅",
				"url": ""
			}, {
				"color": "#579daf",
				"name": "RealD厅",
				"url": ""
			}, {
				"color": "#579daf",
				"name": "LUXE巨幕厅",
				"url": ""
			}, {
				"color": "#579daf",
				"name": "4K厅",
				"url": ""
			}, {
				"color": "#579daf",
				"name": "60帧厅",
				"url": ""
			}, {
				"color": "#579daf",
				"name": "巨幕厅",
				"url": ""
			}],
			"lat": 23.197622,
			"lng": 113.36466,
			"mark": 0,
			"nm": "龙洞巨幕影城LUXE",
			"poiId": 168867258,
			"price": 19.9,
			"promotion": {
				"cardPromotionTag": "",
				"couponPromotionTag": "",
				"merchantActivityTag": "",
				"packShowActivityTag": "",
				"platformActivityTag": "悬崖之上等5部影片特惠",
				"starActivityTag": ""
			},
			"referencePrice": "0",
			"score": 600.0,
			"sellPrice": "19.9",
			"shopId": 101910974,
			"showTimes": "",
			"tag": {
				"allowRefund": 0,
				"buyout": 0,
				"cityCardTag": 0,
				"deal": 0,
				"endorse": 0,
				"giftTag": "",
				"hallType": ["杜比全景声厅", "RealD厅", "LUXE巨幕厅", "4K厅", "60帧厅", "巨幕厅"],
				"hallTypeVOList": [{
					"name": "杜比全景声厅",
					"url": ""
				}, {
					"name": "RealD厅",
					"url": ""
				}, {
					"name": "LUXE巨幕厅",
					"url": ""
				}, {
					"name": "4K厅",
					"url": ""
				}, {
					"name": "60帧厅",
					"url": ""
				}, {
					"name": "巨幕厅",
					"url": ""
				}],
				"sell": 1,
				"snack": 1,
				"vipTag": ""
			}
		}, {
			"addr": "白云区石井街石槎路自编3号D栋3楼101房",
			"cellShows": [],
			"cityId": 20,
			"dis": 6421.9836025880995,
			"distance": "6.4km",
			"follow": 0,
			"id": 35747,
			"labels": [{
				"color": "#579daf",
				"name": "杜比全景声厅",
				"url": ""
			}, {
				"color": "#579daf",
				"name": "RealD厅",
				"url": ""
			}, {
				"color": "#579daf",
				"name": "DTS:X 临境音厅",
				"url": ""
			}, {
				"color": "#579daf",
				"name": "4K厅",
				"url": ""
			}, {
				"color": "#579daf",
				"name": "巨幕厅",
				"url": ""
			}],
			"lat": 23.205023,
			"lng": 113.24396,
			"mark": 0,
			"nm": "中影石井巨幕影城",
			"poiId": 1496254822,
			"price": 0.0,
			"promotion": {
				"cardPromotionTag": "",
				"couponPromotionTag": "",
				"merchantActivityTag": "",
				"packShowActivityTag": "",
				"platformActivityTag": "",
				"starActivityTag": ""
			},
			"referencePrice": "0",
			"score": 600.0,
			"sellPrice": "",
			"shopId": 1496254822,
			"showTimes": "",
			"tag": {
				"allowRefund": 0,
				"buyout": 0,
				"cityCardTag": 0,
				"deal": 0,
				"endorse": 0,
				"giftTag": "",
				"hallType": ["杜比全景声厅", "RealD厅", "DTS:X 临境音厅", "4K厅", "巨幕厅"],
				"hallTypeVOList": [{
					"name": "杜比全景声厅",
					"url": ""
				}, {
					"name": "RealD厅",
					"url": ""
				}, {
					"name": "DTS:X 临境音厅",
					"url": ""
				}, {
					"name": "4K厅",
					"url": ""
				}, {
					"name": "巨幕厅",
					"url": ""
				}],
				"sell": 1,
				"snack": 0,
				"vipTag": ""
			}
		}, {
			"addr": "天河区燕岭路133号苏荷独立艺术园区内",
			"cellShows": [],
			"cityId": 20,
			"dis": 6451.014648278533,
			"distance": "6.5km",
			"follow": 0,
			"id": 25319,
			"labels": [{
				"color": "#579daf",
				"name": "退",
				"url": ""
			}, {
				"color": "#579daf",
				"name": "改签",
				"url": ""
			}, {
				"color": "#ff9900",
				"name": "小吃",
				"url": ""
			}, {
				"color": "#579daf",
				"name": "杜比全景声厅",
				"url": ""
			}, {
				"color": "#579daf",
				"name": "4K厅",
				"url": ""
			}, {
				"color": "#579daf",
				"name": "巨幕厅",
				"url": ""
			}],
			"lat": 23.163292,
			"lng": 113.3305,
			"mark": 0,
			"nm": "FUN范影城（燕塘·杜比巨幕）",
			"poiId": 174906644,
			"price": 13.0,
			"promotion": {
				"cardPromotionTag": "",
				"couponPromotionTag": "",
				"merchantActivityTag": "",
				"packShowActivityTag": "",
				"platformActivityTag": "追虎擒龙等6部影片特惠",
				"starActivityTag": ""
			},
			"referencePrice": "0",
			"score": 600.0,
			"sellPrice": "13",
			"shopId": 107743978,
			"showTimes": "",
			"tag": {
				"allowRefund": 1,
				"buyout": 0,
				"cityCardTag": 0,
				"deal": 0,
				"endorse": 1,
				"giftTag": "",
				"hallType": ["杜比全景声厅", "4K厅", "巨幕厅"],
				"hallTypeVOList": [{
					"name": "杜比全景声厅",
					"url": ""
				}, {
					"name": "4K厅",
					"url": ""
				}, {
					"name": "巨幕厅",
					"url": ""
				}],
				"sell": 1,
				"snack": 1,
				"vipTag": ""
			}
		}, {
			"addr": "天河区长兴路13号优托邦购物中心3楼（近天河客运站150米处）",
			"cellShows": [],
			"cityId": 20,
			"dis": 6730.8443745441145,
			"distance": "6.7km",
			"follow": 0,
			"id": 1410,
			"labels": [{
				"color": "#F52B27",
				"name": "安心影院",
				"url": "http://p1.meituan.net/scarlett/946d67ef54f993a3506944cca42652af3736.png"
			}, {
				"color": "#ff9900",
				"name": "小吃",
				"url": ""
			}],
			"lat": 23.170547,
			"lng": 113.34833,
			"mark": 0,
			"nm": "横店电影城（长兴店）",
			"poiId": 1466645,
			"price": 19.9,
			"promotion": {
				"cardPromotionTag": "",
				"couponPromotionTag": "",
				"merchantActivityTag": "",
				"packShowActivityTag": "",
				"platformActivityTag": "悬崖之上等5部影片特惠",
				"starActivityTag": ""
			},
			"referencePrice": "70",
			"score": 503.84616,
			"sellPrice": "19.9",
			"shopId": 5619352,
			"showTimes": "",
			"tag": {
				"allowRefund": 0,
				"buyout": 0,
				"cityCardTag": 0,
				"deal": 0,
				"endorse": 0,
				"giftTag": "",
				"hallType": [],
				"hallTypeVOList": [],
				"sell": 1,
				"snack": 1,
				"vipTag": ""
			}
		}, {
			"addr": "白云区棠景街岗贝路1号鸿盈汇一楼",
			"cellShows": [],
			"cityId": 20,
			"dis": 6786.648883585338,
			"distance": "6.8km",
			"follow": 0,
			"id": 27378,
			"labels": [{
				"color": "#579daf",
				"name": "退",
				"url": ""
			}, {
				"color": "#579daf",
				"name": "改签",
				"url": ""
			}, {
				"color": "#ff9900",
				"name": "小吃",
				"url": ""
			}],
			"lat": 23.180548,
			"lng": 113.251945,
			"mark": 0,
			"nm": "GTS影城鸿盈汇店",
			"poiId": 194782723,
			"price": 0.0,
			"promotion": {
				"cardPromotionTag": "",
				"couponPromotionTag": "",
				"merchantActivityTag": "",
				"packShowActivityTag": "",
				"platformActivityTag": "",
				"starActivityTag": ""
			},
			"referencePrice": "0",
			"score": 600.0,
			"sellPrice": "",
			"shopId": 131805134,
			"showTimes": "",
			"tag": {
				"allowRefund": 1,
				"buyout": 0,
				"cityCardTag": 0,
				"deal": 0,
				"endorse": 1,
				"giftTag": "",
				"hallType": [],
				"hallTypeVOList": [],
				"sell": 1,
				"snack": 1,
				"vipTag": ""
			}
		}, {
			"addr": "白云区龙悦新街156号龙归城悦和方购物中心四楼",
			"cellShows": [],
			"cityId": 20,
			"dis": 6847.648050111994,
			"distance": "6.8km",
			"follow": 0,
			"id": 36626,
			"labels": [{
				"color": "#579daf",
				"name": "改签",
				"url": ""
			}, {
				"color": "#579daf",
				"name": "杜比全景声厅",
				"url": ""
			}],
			"lat": 23.276348,
			"lng": 113.322075,
			"mark": 0,
			"nm": "期遇•悦电影城（龙归城悦和方店）",
			"poiId": 1626094940,
			"price": 19.9,
			"promotion": {
				"cardPromotionTag": "",
				"couponPromotionTag": "",
				"merchantActivityTag": "",
				"packShowActivityTag": "",
				"platformActivityTag": "悬崖之上等4部影片特惠",
				"starActivityTag": ""
			},
			"referencePrice": "0",
			"score": 600.0,
			"sellPrice": "19.9",
			"shopId": 1626094940,
			"showTimes": "",
			"tag": {
				"allowRefund": 0,
				"buyout": 0,
				"cityCardTag": 0,
				"deal": 0,
				"endorse": 1,
				"giftTag": "",
				"hallType": ["杜比全景声厅"],
				"hallTypeVOList": [{
					"name": "杜比全景声厅",
					"url": ""
				}],
				"sell": 1,
				"snack": 0,
				"vipTag": ""
			}
		}, {
			"addr": "白云区棠景路181号韩汇里A栋四层全层",
			"cellShows": [],
			"cityId": 20,
			"dis": 6946.724069024745,
			"distance": "6.9km",
			"follow": 0,
			"id": 28625,
			"labels": [{
				"color": "#579daf",
				"name": "改签",
				"url": ""
			}],
			"lat": 23.17322,
			"lng": 113.256615,
			"mark": 0,
			"nm": "中影CCV影城（CCV影城广州店）",
			"poiId": 1281619699,
			"price": 19.9,
			"promotion": {
				"cardPromotionTag": "",
				"couponPromotionTag": "",
				"merchantActivityTag": "",
				"packShowActivityTag": "",
				"platformActivityTag": "悬崖之上等6部影片特惠",
				"starActivityTag": ""
			},
			"referencePrice": "0",
			"score": 600.0,
			"sellPrice": "19.9",
			"shopId": 1281619699,
			"showTimes": "",
			"tag": {
				"allowRefund": 0,
				"buyout": 0,
				"cityCardTag": 0,
				"deal": 0,
				"endorse": 1,
				"giftTag": "",
				"hallType": [],
				"hallTypeVOList": [],
				"sell": 1,
				"snack": 0,
				"vipTag": ""
			}
		}],
		"ct_pois": [{
			"ct_poi": "936879945111165696_a30_c0",
			"poiid": 1525695
		}, {
			"ct_poi": "936879945111165696_a8928_c1",
			"poiid": 4690992
		}, {
			"ct_poi": "936879945111165696_a15975_c2",
			"poiid": 95293132
		}, {
			"ct_poi": "936879945111165696_a27130_c3",
			"poiid": 193610118
		}, {
			"ct_poi": "936879945111165696_a59_c4",
			"poiid": 79812
		}, {
			"ct_poi": "936879945111165696_a25545_c5",
			"poiid": 168867258
		}, {
			"ct_poi": "936879945111165696_a35747_c6",
			"poiid": 1496254822
		}, {
			"ct_poi": "936879945111165696_a25319_c7",
			"poiid": 174906644
		}, {
			"ct_poi": "936879945111165696_a1410_c8",
			"poiid": 1466645
		}, {
			"ct_poi": "936879945111165696_a27378_c9",
			"poiid": 194782723
		}, {
			"ct_poi": "936879945111165696_a36626_c10",
			"poiid": 1626094940
		}, {
			"ct_poi": "936879945111165696_a28625_c11",
			"poiid": 1281619699
		}],
		"paging": {
			"hasMore": true,
			"limit": 12,
			"offset": 24,
			"total": 271
		}
	},
	"errMsg": "",
	"success": true
}
